simulation/qsim/Ula_pjct.msim.vcd
$comment
	File created using the following command:
		vcd file Ula_pjct.msim.vcd -direction
$end
$date
	Thu Oct 23 09:56:42 2025
$end
$version
	ModelSim Version 2020.1
$end
$timescale
	1ps
$end

$scope module summer_subtractor_vlg_vec_tst $end
$var reg 5 ! A [4:0] $end
$var reg 5 " B [4:0] $end
$var reg 1 # SUB $end
$var wire 1 $ S [4] $end
$var wire 1 % S [3] $end
$var wire 1 & S [2] $end
$var wire 1 ' S [1] $end
$var wire 1 ( S [0] $end

$scope module i1 $end
$var wire 1 ) gnd $end
$var wire 1 * vcc $end
$var wire 1 + unknown $end
$var tri1 1 , devclrn $end
$var tri1 1 - devpor $end
$var tri1 1 . devoe $end
$var wire 1 / S[4]~output_o $end
$var wire 1 0 S[3]~output_o $end
$var wire 1 1 S[2]~output_o $end
$var wire 1 2 S[1]~output_o $end
$var wire 1 3 S[0]~output_o $end
$var wire 1 4 B[4]~input_o $end
$var wire 1 5 SUB~input_o $end
$var wire 1 6 inst12~0_combout $end
$var wire 1 7 B[1]~input_o $end
$var wire 1 8 B[0]~input_o $end
$var wire 1 9 inst4|inst6|inst4~0_combout $end
$var wire 1 : B[3]~input_o $end
$var wire 1 ; B[2]~input_o $end
$var wire 1 < inst12~combout $end
$var wire 1 = A[1]~input_o $end
$var wire 1 > A[4]~input_o $end
$var wire 1 ? A[0]~input_o $end
$var wire 1 @ inst6|inst6|inst4~0_combout $end
$var wire 1 A inst6|inst6|inst3~combout $end
$var wire 1 B inst10~combout $end
$var wire 1 C inst01928374|inst4~combout $end
$var wire 1 D inst01928374|inst5~0_combout $end
$var wire 1 E inst1|inst6~0_combout $end
$var wire 1 F inst11~combout $end
$var wire 1 G A[2]~input_o $end
$var wire 1 H inst6|inst1~combout $end
$var wire 1 I inst2|inst6~0_combout $end
$var wire 1 J inst6|inst7|inst4~combout $end
$var wire 1 K A[3]~input_o $end
$var wire 1 L inst6|inst~combout $end
$var wire 1 M inst3|inst6~0_combout $end
$var wire 1 N inst18|inst3~2_combout $end
$var wire 1 O inst8|inst8|inst3~0_combout $end
$var wire 1 P inst8|inst1~0_combout $end
$var wire 1 Q inst10~0_combout $end
$var wire 1 R inst8|inst2~0_combout $end
$var wire 1 S inst8|inst2~1_combout $end
$var wire 1 T inst8|inst6|inst4~combout $end
$var wire 1 U inst8|inst8|inst3~1_combout $end
$var wire 1 V inst8|inst8|inst3~2_combout $end
$var wire 1 W inst8|inst7|inst3~combout $end
$var wire 1 X inst8|inst6|inst3~0_combout $end
$var wire 1 Y inst8|inst3~0_combout $end
$upscope $end
$upscope $end
$enddefinitions $end
#0
$dumpvars
b11011 !
b1100 "
0#
1(
0'
0&
0%
0$
0)
1*
x+
1,
1-
1.
0/
00
01
02
13
04
05
06
07
08
19
1:
1;
0<
1=
1>
1?
1@
0A
0B
0C
0D
0E
0F
0G
1H
1I
1J
1K
0L
1M
0N
0O
0P
0Q
1R
0S
1T
1U
0V
1W
0X
1Y
$end
#5000
b11111 !
b11110 !
b11100 "
b11110 "
b11111 "
18
17
14
0?
1G
1Q
1F
16
0R
1A
1P
0H
1N
1/
1R
0I
1<
1S
0W
1$
11
0S
1O
0M
1&
1X
12
1S
0P
0O
1'
0X
1V
0N
0/
10
02
1W
0'
1%
0$
1X
0V
00
12
01
0&
1'
0%
#10000
1#
b10111 "
b11111 !
b111 "
15
1?
0:
04
1C
0R
0A
0<
0Y
1V
10
03
0(
1%
#15000
b1111 !
b1101 !
b1001 !
b101 "
b10101 "
07
14
0=
0G
0>
0Q
0F
06
1R
1P
1L
0R
1<
0S
0W
1M
11
0M
0P
1O
1&
0X
1N
1/
02
1S
1P
0O
1W
0'
1$
0N
0V
1X
12
00
0/
01
0W
0&
0$
0%
1'
1V
10
11
1&
1%
#20000
b1 !
0#
b0 !
b10000 !
b10010 !
b10111 "
b111 "
05
17
04
0?
1=
0K
1>
0C
1B
1Q
1A
1O
1H
1N
1Y
13
1/
0S
1E
1R
1I
1$
1(
0V
00
0P
1S
0O
1M
0%
0X
02
1W
0S
1P
1O
0'
1X
1V
0N
0/
10
12
01
0W
0&
1'
1%
0$
0X
0V
00
02
11
1&
0'
0%
#25000
b110 "
b1110 "
b10110 !
b11110 !
b11111 !
b1111 !
b1100 "
1?
1G
1K
0>
08
07
1:
0R
0P
0O
0Q
0B
0<
1N
1V
10
1/
1S
1W
1R
0E
1$
1%
0V
00
01
0S
1P
0&
0%
1X
12
0W
1'
0X
02
11
1&
0'
#30000
b1000 "
1#
b1101 !
b11000 "
b11001 "
b10001 "
b101 !
b100 !
b10100 !
b10011 "
15
0?
0=
0K
1>
18
17
0;
0:
14
1F
1B
0A
0@
1O
0H
1Q
1W
1<
0N
1V
10
0/
01
0I
0P
0R
0&
0$
1%
0V
00
0O
0M
0W
1S
0%
11
0S
1P
1O
1&
1V
1N
1X
12
1/
10
1W
1%
1$
1'
0X
0V
00
02
01
0&
0'
0%
#35000
b10000 !
b10010 !
b11010 !
1=
0G
1K
1R
1A
1@
0P
1H
0O
0L
1S
1E
1P
0W
1V
10
11
0P
1I
1W
1&
1%
1X
12
01
0W
1O
0&
1'
11
1&
0V
00
0%
#40000
0#
b11 "
b10 "
b11110 !
b11100 !
b10100 !
05
0=
1G
0K
08
04
0R
0A
0@
1P
0H
0O
1L
0T
0Y
0X
02
03
0S
0E
0P
1M
0(
0'
1V
10
1T
0I
1W
0U
1S
1O
1%
1X
0N
0/
12
01
0W
1U
0O
0M
0&
1'
0$
11
0S
1P
1O
1&
1N
1/
1W
1$
0V
00
01
0&
0%
#45000
b10101 !
b10111 !
b11111 !
1?
1=
1K
1@
0O
0L
1Y
0X
02
13
0P
1(
0'
1V
10
0W
1%
11
1&
#50000
b110 "
b1111 !
1#
b111 "
b1011 !
b1001 !
0=
0G
0>
18
1;
15
1R
1P
1L
1C
0B
1W
16
0Y
1X
12
03
01
0W
0<
0&
0(
1'
11
1M
1&
1S
0P
1O
0N
0/
1W
0$
0V
00
01
0&
0%
#55000
b1111 "
b11111 "
b1 !
b101 !
b111 !
1=
1G
0K
1:
14
0R
1A
1P
1H
0O
0L
1<
0F
1B
06
1V
1N
1/
10
0S
1E
0W
1I
0M
0<
0T
1%
1$
0V
0X
02
00
11
1T
1M
1S
1W
0U
1&
0%
0'
1X
0N
0/
12
01
0W
1U
0S
0P
1O
0&
1'
0$
1N
1V
10
1/
11
1W
1&
1$
1%
01
0&
#60000
b11101 "
b11001 "
b10111 !
0#
b11000 "
b10000 "
b11111 !
b11101 !
0=
1K
1>
08
07
0;
0:
05
1R
0O
0H
0C
0B
09
0W
1<
16
1Y
0X
0V
00
02
13
11
0E
1W
0U
1F
0M
1&
1(
0'
0%
1V
10
01
0I
1S
1O
0&
1%
0V
0N
0/
00
0O
0%
0$
1X
1V
10
12
1'
1%
0V
00
0%
#65000
b11100 !
b0 "
b10 "
b1010 "
b10100 !
17
1:
04
0?
0K
1B
19
0<
0F
06
0R
0A
0@
1O
1L
1V
1N
0Y
03
1/
10
0W
1U
1F
1M
1I
0S
1P
0T
1%
1$
0(
0V
0X
02
00
11
0I
1S
0P
1T
1&
0%
0'
1V
0N
1X
12
0/
10
0O
1%
0$
1'
0V
00
0%
#70000
b10000 !
1#
b10001 !
b10 "
15
0:
1?
0G
0F
1D
0B
16
1<
1R
1A
1@
1P
1H
1N
1V
1Y
13
10
1/
1I
1E
0<
0M
0P
1W
1$
1%
1(
01
1M
0S
0W
0&
0N
0/
11
1S
1P
1O
1&
0$
1N
0X
02
1/
1W
1$
0'
1X
0V
00
12
01
0&
1'
0%
#75000
b11 "
b10011 !
b1 "
b10111 !
b10110 !
b1001 "
0?
1=
1G
18
07
1:
0D
0P
0H
0Q
1B
1<
1V
10
0S
0W
0R
1%
11
1S
1&
0X
02
0'
1X
12
1'
#80000
b110 !
b1110 !
0#
b1011 "
b1010 !
b11 "
05
17
0:
0G
1K
0>
1F
06
1Q
0<
1P
0O
1R
0V
00
0I
1<
0R
1W
0S
0%
1V
10
01
1O
0M
1S
0&
1%
0X
02
0S
0P
0O
0'
0V
0N
1X
12
0/
00
0W
0%
0$
1'
0X
1V
10
02
11
1&
0'
1%
#85000
b111 "
b10111 "
b10110 "
b1000 !
b1001 !
b1 !
b10100 "
b11100 "
1?
0=
0K
08
07
1;
1:
14
1R
0A
1O
0L
0B
09
1W
0<
16
0V
1N
1/
00
01
1S
0E
0W
0F
1<
0&
0%
1$
1V
10
11
1P
1&
1%
1X
12
1W
1'
01
0&
#90000
b10001 !
1#
b1100 "
b1110 "
15
17
04
1>
1D
19
1L
1H
1A
0N
0/
0S
1E
0W
1F
1I
0$
11
0P
0O
1M
1&
0X
02
1W
1S
1P
1O
0'
0V
1N
1/
00
01
0W
0&
0%
1$
1X
1V
10
12
11
1&
1'
1%
#95000
b1010 "
b1011 "
b10000 !
b11 "
b0 !
b10011 "
0?
0>
18
0;
0:
14
0D
0A
0L
0H
1B
1W
0<
06
0V
00
01
0S
0E
0I
1<
0&
0%
0P
0O
0M
0X
02
0W
1S
1P
1O
0'
1V
0N
0/
10
11
1W
1&
1%
0$
1X
0V
00
12
01
0&
1'
0%
#100000
0#
b10001 "
b10000 "
b10000 !
b0 "
05
1>
08
07
04
0B
0R
1L
0J
1H
0@
0Q
1N
0Y
03
1/
0S
0O
0P
1R
0T
1$
0(
0X
02
1T
0U
1S
0'
1X
1V
10
12
0W
1U
0T
1'
1%
0V
0X
02
00
11
1W
0U
1&
0%
0'
1V
10
01
0&
1%
0V
00
0%
#105000
b10100 !
b11100 !
b11101 !
b10 "
b11 "
18
17
1?
1G
1K
1Q
1D
1B
0R
1J
1A
1@
1P
0H
1O
0L
1R
1E
0O
0P
0W
1U
1V
10
11
0S
1P
1W
0U
1&
1%
01
1T
0W
1U
0&
1X
0V
00
12
11
1W
1&
1'
0%
1V
10
01
0&
1%
#110000
b11111 !
b1011 "
1#
b10111 !
b10110 !
b1001 "
07
1:
0?
1=
0K
15
0Q
0<
0D
1O
1L
0F
16
0V
1Y
0X
0N
0/
02
13
00
0R
1M
1S
1I
1<
0%
1(
0'
0$
1V
10
0P
1%
1N
1X
12
1/
0W
1$
1'
11
1&
#115000
b10010 !
b1 "
b11010 !
b11011 !
0:
1?
0G
1K
0<
0T
1R
1C
0A
1P
1H
0O
0L
0V
0Y
0X
02
03
00
0%
0(
0'
1V
10
1%
#120000
b101 "
b1011 !
b10101 "
0#
b1111 !
b111 !
1G
0K
0>
1;
14
05
0P
1O
1A
1W
0U
1F
1D
0C
0N
0/
01
0W
1U
1T
0&
0$
1X
12
11
1W
1&
1'
0V
00
01
0&
0%
#125000
b10100 "
b101 !
b10110 "
b100 !
b10010 "
b1100 !
0?
0=
1K
08
17
0;
0R
0D
0A
0O
1L
0W
0F
11
0E
1&
1V
10
1P
1%
1W
01
0&
#130000
b11010 "
b11100 !
1#
b11110 !
b11111 !
b11110 "
b10111 !
1?
1=
0K
1>
1;
1:
15
1R
1D
1O
0H
0W
1<
0B
06
1Y
0V
00
13
11
0I
0<
1&
1(
0%
1V
10
0O
1%
0V
00
0%
#135000
b11111 "
b11101 "
b10101 "
b111 !
b110 !
b10001 "
0?
0>
18
07
0;
0:
0D
1A
0L
1H
1W
1F
1<
1N
1V
10
1/
01
0S
0M
0&
1$
1%
1S
0P
1O
0X
0N
0/
02
0W
0'
0$
1X
0V
00
12
11
1&
1'
0%
#140000
b1 "
0#
b100 !
b11 "
b1011 "
b101 !
05
1?
0=
17
1:
04
1D
1B
0R
0A
1Q
0<
0Y
1V
10
03
1E
1R
0(
1%
1P
1I
0S
1W
0O
1M
0X
02
01
1S
0P
1O
0&
0'
0V
1N
1/
00
0T
0W
0%
1$
1V
10
11
1W
0U
1&
1%
01
0&
0V
00
0%
#145000
b1 !
b10001 !
b1111 "
b111 "
b10000 !
1;
0:
0?
0G
1>
0W
1U
0F
1<
1T
0R
0J
0D
0@
1P
1L
1V
1Y
1X
0N
0/
12
13
10
11
0M
0O
0E
0P
1&
1%
1(
1'
0$
0V
00
0S
1O
0I
1W
0%
1N
1V
10
1/
01
0O
0&
1$
1%
0X
0V
00
02
0'
0%
1V
10
1%
#150000
b110 "
b10110 "
1#
b10100 "
b10100 !
b100 !
b10000 "
15
1G
0>
08
07
0;
14
1F
1C
1P
1J
1R
0L
1@
09
0W
0N
0Y
1X
12
03
0/
11
1E
0U
1O
0P
0F
0<
1&
0$
0(
1'
0X
02
1P
1I
1W
0'
01
0W
0O
1M
0&
11
1S
0P
1O
1&
0V
1N
1/
00
0T
1W
0%
1$
1V
10
01
0W
0&
1%
11
1&
#155000
b1100 !
b1110 !
b11000 "
b1111 !
b11001 "
b1001 "
b1011 "
b1011 !
18
17
1:
04
1?
1=
0G
1K
0B
19
1<
1F
16
0R
1A
1P
0H
0O
1L
0V
0N
0/
00
1U
0F
0I
0S
1T
0%
0$
1V
1X
12
10
1I
1O
0M
1W
1%
1'
0V
0X
02
00
01
1M
1S
0P
0&
0%
0'
1V
1N
1/
10
0S
1P
0O
0T
0W
1%
1$
0N
0/
11
1T
1&
0$
0V
00
1W
0%
01
0&
#160000
0#
b11011 !
b1111 "
b10011 !
b111 "
b110 "
b10111 !
05
08
1;
0:
1G
0K
1>
0C
1B
06
0W
0<
0P
1O
0A
1Y
1V
10
13
11
1S
0E
1<
1W
1&
1(
1%
0V
00
01
1P
0I
0&
0%
1X
12
0W
0O
0M
1'
11
0S
0P
1O
1&
1V
1N
1/
10
1W
1%
1$
0X
0V
00
02
01
0&
0'
0%
#165000
b10101 !
b10110 "
b10100 "
b11101 !
b11100 "
b11001 !
07
1:
14
0=
0G
1K
0B
09
0<
1F
16
1R
1A
1P
1H
0O
0L
1V
0N
0/
10
0F
1<
1S
1%
0$
0V
00
1I
0%
1X
12
1O
1'
1V
10
1%
#170000
b11000 !
1#
b1000 !
b11101 "
15
18
0?
0>
1F
06
0Q
19
0A
1L
0H
0I
0<
0R
0W
0F
1M
11
0P
1&
1N
1/
1W
1$
01
0&
#175000
b1010 !
b11111 "
b10 !
b10111 "
b110 !
b111 !
17
0:
1?
1=
1G
0K
1Q
1B
1<
0T
1R
1C
1A
1P
1H
0O
0L
0V
0Y
0X
02
03
00
0R
1E
0M
0U
1I
0%
0(
0'
1V
10
1%
0N
0V
00
0/
1T
0$
0%
1X
12
0W
1U
1'
11
1&
1V
10
1%
#180000
b10011 "
0#
b10111 !
b10001 "
b11001 "
b10110 !
05
0?
1>
07
0;
1:
0C
16
1R
1L
0H
0Q
1W
0<
1Y
0V
00
13
01
1<
1M
0R
0&
1(
0%
0P
1O
1N
1/
0W
1$
1V
10
11
1&
1%
#185000
b11000 "
b10010 !
b10 !
b11010 "
b10010 "
b11 !
1?
0G
0>
08
17
0:
1R
1P
0L
0<
0N
0V
00
0/
0S
1W
0$
0%
01
0&
0X
02
0'
#190000
b10 "
b1011 !
b110 "
1#
b1010 !
0?
1K
1;
04
15
1C
0O
1L
0W
1F
1Q
0B
0Y
03
11
1S
0I
0R
1&
0(
1V
10
1O
0S
1%
1X
12
1'
0V
0X
02
00
0%
0'
#195000
b1110 !
b11110 !
b10 "
b11111 !
0;
1?
1G
1>
1W
0F
1D
0C
0A
0P
0L
1Y
1N
1/
13
01
1I
0E
0W
0M
0&
1(
1$
11
1M
0I
1S
1&
0N
0/
0S
1P
0M
0$
1N
1X
12
1/
1W
1S
0P
0O
1$
1'
0X
0N
0/
02
01
0W
0&
0'
0$
1X
1V
10
12
11
1&
1'
1%
#200000
b11 "
b10011 "
0#
b1111 !
b10111 "
b1110 !
05
0?
0>
18
1;
14
1F
0D
1A
1L
1H
1W
1N
1/
01
0S
1M
0&
1$
1S
1P
1O
0X
0N
0/
02
0W
0'
0$
1X
0V
00
12
11
1&
1'
0%
#205000
b11111 "
b1111 "
b11110 !
b1011 "
1>
0;
1:
04
1R
0L
0H
1W
1<
1B
06
1V
10
01
0S
0M
1E
0<
0&
1%
1S
0O
0X
1N
1/
02
0'
1$
1X
0V
00
12
1'
0%
#210000
b11100 !
b1001 "
1#
b1 "
b10001 "
b1100 !
07
0:
14
0=
0>
15
0Q
0B
1<
0A
1L
1H
1V
0N
0/
10
0R
0E
1I
1%
0$
0S
0P
0I
1O
1M
0W
0M
1S
1P
0X
0V
1N
1/
00
02
11
0S
0P
0O
1W
1&
0'
0%
1$
0N
1X
12
0/
01
0W
0&
0$
1'
0X
1V
10
02
11
1&
0'
1%
#215000
b100 !
b0 !
b10101 "
b10111 "
b10000 !
17
1;
0G
0K
1>
1Q
1B
1W
0F
1P
0J
1O
1R
0@
1N
1/
01
0R
0W
0O
1S
0P
0&
1$
0V
00
11
0S
1W
1&
0%
1V
1X
12
10
01
0&
1%
1'
0X
02
0'
#220000
0#
b11111 "
b11011 "
05
0;
1:
0B
16
0W
0<
0N
0V
00
0/
11
1<
1&
0$
0%
#225000
b10001 !
b1011 "
b11001 !
b1001 !
b11 "
b111 "
1;
0:
04
1?
1K
0>
1W
0<
1B
06
1R
1J
1D
1@
1O
0H
1V
0Y
03
10
01
1M
1E
1<
0O
1P
0&
1%
0(
0V
00
1S
1O
1I
0M
0W
0%
1N
1V
10
1/
11
0T
1M
0S
0P
1&
1$
1%
0V
0N
0/
00
1S
1P
0O
1T
0%
0$
1N
1/
0T
1$
1V
10
1W
0U
1%
01
0&
0V
00
0%
#230000
b110 "
b100 "
1#
b1000 !
b0 !
b10000 !
15
0?
0K
1>
08
07
1F
0D
1C
16
0R
0J
0@
1O
1H
0Q
0I
0S
0<
0O
0M
0P
1R
1V
10
1T
1P
0W
1U
1%
1X
0V
0N
0/
00
12
11
1&
1'
0%
0$
1V
0X
02
10
1%
0'
#235000
b10010 !
b10110 !
b1100 "
b1101 "
b1111 "
b11110 !
b1110 !
18
17
1:
1=
1G
1K
0>
1Q
0C
0B
1<
1J
1A
1@
0P
1O
1Y
0V
1N
1/
00
13
0R
1S
0E
0O
1P
1I
1W
1(
0%
1$
1V
10
01
0S
0P
0I
0W
1O
1M
0&
1%
1X
0V
00
12
11
1W
0M
1S
1P
1&
1'
0%
0X
1V
0N
0/
10
02
01
0S
0P
0O
0W
0&
0'
1%
0$
1N
1X
12
1/
11
1W
1&
1$
1'
0X
0V
00
02
01
0&
0'
0%
#240000
b11111 "
0#
b1100 !
b10111 "
b100 !
b10100 !
05
0=
0K
1>
0:
14
0A
0@
1O
0H
0<
0N
1V
10
0/
1P
1M
0$
1%
0V
00
0W
1S
0P
0O
0%
1N
1/
11
1W
1&
1$
1X
1V
10
12
01
0&
1'
1%
#245000
b10011 "
b10101 !
b10010 "
b10000 "
b101 !
1?
0>
08
07
0;
1R
1@
0L
1H
09
0W
0F
0N
0/
11
0S
1P
1I
0M
1W
0U
1F
1<
1&
0$
01
0W
1S
0P
0I
0&
0X
1N
0V
00
1/
02
11
1W
1O
1&
0'
1$
0%
1X
12
01
0&
1'
1V
10
1%
#250000
b0 "
1#
b111 !
b1111 !
b10 "
15
1=
1K
17
04
1D
0R
1A
0O
1L
19
1E
0W
1U
0F
0<
0V
00
11
1P
1I
1M
1&
0%
1V
10
1W
0S
0P
1%
0N
0/
01
0W
0&
0$
0X
02
11
1&
0'
#255000
b1010 "
b1110 !
b1011 "
b11011 "
b1100 !
0?
0=
18
1:
14
1R
0D
0A
1B
1<
1F
06
0V
1N
1/
00
0E
0<
0%
1$
1P
0I
1W
1O
01
0&
1V
10
1%
#260000
b1000 !
0#
b0 !
b11001 "
b10001 "
b10000 "
b0 "
b10 !
05
08
07
0:
04
1=
0G
0K
0B
0Q
1<
0R
1A
0P
0H
0O
0L
0Y
1X
0V
00
12
03
1R
0M
1S
0W
0(
1'
0%
1V
10
11
1P
1O
0T
1&
1%
0N
0X
02
0/
1T
0$
0'
0V
1X
12
00
1W
0%
1'
01
0&
#265000
b100 "
b11 !
b101 "
1?
18
1;
1D
0W
0F
11
0S
1E
1&
0P
1I
0X
02
1W
0O
0'
01
0&
1V
10
1%
#270000
1#
b1011 !
b1101 "
b11101 "
b1010 !
b11100 "
15
08
1:
14
0?
1K
0D
1C
1B
1Q
09
0<
1O
1L
0V
00
0R
0W
1F
1M
0%
1V
10
11
0I
1P
0O
1&
1%
1N
1/
1O
1W
1$
0V
1X
12
00
01
0&
0%
1'
1V
10
1%
#275000
b11010 !
b11000 "
b10000 "
b0 "
b1 "
18
0;
0:
04
1>
0Q
0C
19
0W
0U
16
1R
0L
1H
1Y
0X
0V
00
02
13
11
0R
1W
1U
0F
0M
1I
1&
1(
0'
0%
1V
10
01
0P
1M
0&
1%
0V
0N
0/
00
0W
1S
1P
0O
0%
0$
1N
1/
11
1W
1&
1$
1X
1V
10
12
01
0&
1'
1%
#280000
b11110 !
b11 "
b11100 !
0#
b10100 !
b10101 !
b10 "
08
17
1?
0=
1G
0K
05
1Q
0P
0H
1O
1L
1F
06
0N
0/
1R
0W
0I
1<
0$
0V
00
11
0S
0O
0M
1&
0%
1S
1P
1O
0X
1V
1N
1/
10
02
1W
0'
1%
1$
1X
0V
00
12
01
0&
1'
0%
#285000
b110 "
b1110 "
b10001 !
b1100 "
b11001 !
b11000 !
b1101 "
0?
0G
1K
18
07
1;
1:
0R
0J
0A
0@
0P
1H
0O
0L
0Q
0B
0W
0F
0<
1V
10
11
0S
1O
1M
0E
1P
1I
1W
1R
1&
1%
0V
00
01
0I
0W
0&
0%
0X
1V
0N
0/
10
02
11
0O
1&
0'
1%
0$
0V
00
0%
#290000
b1000 !
b1010 !
1#
b1111 "
b10 !
b11 !
b1110 "
15
08
17
1?
1=
0K
0>
1F
1D
16
1Q
1J
1A
1@
1O
0H
1S
1E
1<
0R
0O
0M
0P
1V
10
1O
1W
1%
1X
0V
1N
1/
00
12
01
0&
1'
0%
1$
1V
10
1%
#295000
b1100 "
b10 !
b1101 "
0?
18
07
0D
0Q
1B
0S
1R
1S
0X
02
0'
1X
12
1'
#300000
b101 "
b10010 !
0#
b11010 !
b11011 !
1?
1K
1>
0:
05
0T
1D
0A
0O
1H
0<
0F
0B
06
0Y
0X
0V
00
02
03
0W
0S
0E
1I
1<
0(
0'
0%
1V
10
11
1T
1P
1O
1&
1%
1X
12
1'
0V
00
0%
#305000
b10101 "
b10001 "
b10011 "
b10010 "
b11010 "
b10011 !
b10010 !
0?
0K
08
17
0;
1:
14
0R
0D
1A
0O
1L
1B
1W
0<
16
1V
0N
0/
10
01
1E
1M
1<
0&
1%
0$
0V
0X
02
00
1S
1O
0%
0'
1N
1/
0T
1$
1V
10
0W
1%
11
1&
#310000
b10 !
1#
b11110 "
b11111 "
b10111 "
15
18
1;
0:
0>
06
1T
1Q
1W
0U
0<
1R
0L
0H
1Y
1X
0V
00
12
13
01
1<
0W
1U
0R
0S
0&
1(
1'
0%
1V
10
11
0M
1S
1&
1%
0V
0X
02
00
0S
0P
0O
0%
0'
0N
1X
12
0/
1W
0$
1'
0X
1V
10
02
01
0&
0'
1%
#315000
b110 !
b1110 !
b1111 !
b11111 !
b11111 "
1:
1?
1G
1K
1>
0<
1C
0A
1P
1O
0V
0Y
1N
1/
03
00
1M
1S
0W
0%
0(
1$
1V
1X
12
10
11
0S
0P
0O
0T
1&
1%
1'
0N
0X
02
0/
1T
0$
0'
0V
00
1W
0%
01
0&
#320000
b11101 "
0#
b11100 "
b11110 !
b1110 !
05
0?
0>
08
07
1F
0C
0B
16
1A
1L
1H
09
1S
0E
1<
0W
0F
11
1P
1&
1X
12
1W
1'
01
0&
#325000
b1100 "
b110 !
b100 "
b110 "
b10110 !
0K
1>
17
0:
04
1O
1R
0H
1B
19
0<
1F
06
1V
10
0S
0I
1E
0W
0F
1<
1%
0V
00
11
0O
0M
0P
1I
1&
0%
0X
02
1S
1P
1W
1M
0'
1V
1N
1/
10
01
0T
0W
0S
0P
1O
0&
1%
1$
0N
0/
11
1T
1&
0$
0V
00
1W
0%
01
0&
#330000
b10 "
1#
b10111 !
b0 "
b111 !
15
1?
0>
07
0;
1D
16
0R
0L
1H
0Q
0W
1Y
13
11
0<
0M
1R
1&
1(
1M
1P
0O
1N
1/
1S
0P
1O
1W
1$
0N
1V
10
0/
01
0W
0&
0$
1%
1X
0V
00
12
11
1&
1'
0%
#335000
b101 !
b1 !
b1 "
b1001 !
b1001 "
b1011 "
18
17
1:
0=
0G
1K
1Q
0D
1C
0B
1<
0R
0A
1P
0H
0O
1L
0Y
1V
10
03
1R
0S
0E
1W
0(
1%
0V
00
01
1S
0P
0I
0&
0%
0X
02
0W
1O
0M
0'
1X
12
11
0S
1P
0O
1&
1'
1V
1N
1/
10
1W
1%
1$
0V
00
01
0&
0%
#340000
0#
b11001 !
b11101 !
05
1G
1>
1F
1D
0C
1B
06
0P
0L
1A
1E
0<
0W
11
1P
1&
1W
01
0&
#345000
b1010 "
08
0D
1Y
0X
02
13
1S
1(
0'
1X
12
1'
#350000
b1110 "
b11100 !
b11110 !
b110 "
1#
b1110 !
b111 "
0?
1=
0>
18
1;
0:
15
0R
1L
1H
0B
0W
1<
16
1V
10
11
0S
1I
0E
0<
1&
1%
1O
1M
0P
0I
0X
02
1S
1P
1W
0'
0V
0N
0/
00
01
0W
0&
0%
0$
1X
12
11
1&
1'
#355000
b10111 "
b110 !
b10101 "
b100 !
b11101 "
b11100 "
0=
0K
08
07
1:
14
1R
0A
0O
0L
1C
1B
09
1<
0F
06
0Y
1V
1N
1/
10
03
1E
0M
1W
1F
0<
1I
0T
0(
1%
1$
0V
0X
02
00
01
0S
1M
0W
0&
0%
0'
0N
0/
11
1T
1S
0P
1O
1&
0$
1N
1/
0T
1$
1V
10
1W
0U
1%
01
0&
0V
00
0%
#360000
b101 !
0#
b1100 "
b100 "
b101 "
05
18
0:
04
1?
1D
0C
0B
0Q
19
1<
1V
10
0E
0R
0W
1U
0F
0M
1%
11
0O
1&
0V
0N
0/
00
1T
0%
0$
1V
1X
12
10
1W
1%
1'
01
0&
#365000
b1 !
b10001 !
b10011 !
b1101 "
b1100 "
08
1:
1=
0G
1>
0D
0<
1R
1P
1L
1Y
0V
1N
1/
00
13
1M
0W
1(
0%
1$
11
0S
0P
1O
1&
0N
0/
1W
0$
0X
1V
10
02
01
0&
0'
1%
#370000
b1000 "
b11011 !
b1010 "
b11010 !
1#
b11110 !
0?
1G
1K
17
0;
15
0R
1C
1A
1P
0H
0O
0L
1Q
0W
16
0Y
1N
1/
03
11
1E
1W
0I
1R
1<
1&
0(
1$
0V
1X
12
00
01
0P
1I
1O
0M
1S
0&
0%
1'
0W
0S
1P
0T
1V
0N
0X
02
0/
10
11
1T
1&
1%
0$
0'
1W
01
0&
#375000
b1110 !
b1011 "
b1111 "
b1010 !
18
1;
0G
0>
0C
0W
1F
0P
0R
1L
1Y
1N
1/
13
11
0E
0I
1W
1M
1&
1(
1$
01
0M
1S
0&
0N
0/
0S
1P
0O
0$
1N
1X
12
1/
0W
1$
1'
0X
0V
00
02
11
1&
0'
0%
#380000
b11111 "
b11101 "
b1011 !
0#
b11011 !
b11100 "
b11000 "
1?
1>
08
07
0;
14
05
0A
0L
1H
09
1W
0F
0N
0/
01
1I
0W
0U
1F
0<
0&
0$
11
1O
1M
0I
1&
1V
10
1S
0P
0M
1%
0V
1N
1/
00
1W
0S
1P
0O
0%
1$
1X
0N
0/
12
01
0W
0&
1'
0$
0X
1V
10
02
11
1&
0'
1%
#385000
b11001 !
b10000 "
b10001 !
b10101 !
b0 "
b101 !
b100 "
1;
0:
04
0=
1G
0K
0>
1W
1U
0Q
19
06
1R
0P
1O
0V
00
01
0R
0F
1<
1S
0&
0%
0S
1I
1X
12
0O
1'
0X
02
0'
1V
10
1%
#390000
b100 !
1#
b110 !
b1100 "
b1110 !
b11110 !
15
1:
0?
1=
1K
1>
1F
1C
1B
16
0<
1A
1O
0H
0V
0Y
03
00
0I
1S
1E
1<
1M
0%
0(
1V
10
0M
0S
1%
1X
1N
1/
12
1S
1P
0O
1'
1$
0N
0/
0W
0$
0V
00
11
1&
0%
#395000
b1110 "
b11010 !
b1010 "
b11000 !
b10000 !
0=
0G
0K
17
0;
1R
0J
0A
0@
0P
1H
1O
1L
1Q
0B
1W
0F
01
0S
0O
0E
1P
1I
0W
0R
0&
1V
10
11
0P
0I
1W
1O
1S
1&
1%
0X
0V
00
02
01
0W
0O
0&
0'
0%
1V
1X
12
10
11
1&
1%
1'
0V
00
0%
#400000
0#
b1000 "
b1100 "
b10010 !
b11010 !
05
1=
1K
07
1;
0C
06
1R
1J
1A
1@
1O
0L
0Q
1W
1N
1/
01
0<
0O
1P
1I
0R
0T
0&
1$
1V
0X
02
10
1M
0U
1O
0S
1%
0'
0V
00
1S
0P
0O
1T
0%
0N
1X
12
0/
1U
0$
1'
1V
10
1%
0V
00
0%
#405000
b100 "
b1010 !
b1110 !
b110 "
b110 !
1G
0K
0>
17
0:
1P
1O
1R
1Q
1B
1<
1N
1V
10
1/
0W
0S
0R
1E
0M
0T
1$
1%
0V
0X
02
00
11
1T
0O
1W
0U
1&
0%
0'
1X
0N
0/
12
01
0W
1U
0&
1'
0$
0X
02
11
1&
0'
1V
10
1%
#410000
b111 "
b111 !
1#
b1111 "
b10111 !
1?
1>
18
1:
15
1C
0A
1L
0H
0B
0<
1F
16
0V
00
1S
0E
1M
0I
1<
0%
0S
0M
1X
1N
1/
12
1S
0P
1O
1'
1$
0N
0/
1W
0$
1V
10
01
0&
1%
