simulation/qsim/Ula_pjct.msim.vcd
$comment
	File created using the following command:
		vcd file Ula_pjct.msim.vcd -direction
$end
$date
	Tue Oct 28 23:19:41 2025
$end
$version
	ModelSim Version 10.5b
$end
$timescale
	1ps
$end

$scope module summer_subtractor_vlg_vec_tst $end
$var reg 5 ! A [4:0] $end
$var reg 1 " AgtB $end
$var reg 5 # B [4:0] $end
$var reg 1 $ SUBTRACTOR $end
$var wire 1 % S [5] $end
$var wire 1 & S [4] $end
$var wire 1 ' S [3] $end
$var wire 1 ( S [2] $end
$var wire 1 ) S [1] $end
$var wire 1 * S [0] $end

$scope module i1 $end
$var wire 1 + gnd $end
$var wire 1 , vcc $end
$var wire 1 - unknown $end
$var tri1 1 . devclrn $end
$var tri1 1 / devpor $end
$var tri1 1 0 devoe $end
$var wire 1 1 S[5]~output_o $end
$var wire 1 2 S[4]~output_o $end
$var wire 1 3 S[3]~output_o $end
$var wire 1 4 S[2]~output_o $end
$var wire 1 5 S[1]~output_o $end
$var wire 1 6 S[0]~output_o $end
$var wire 1 7 AgtB~input_o $end
$var wire 1 8 SUBTRACTOR~input_o $end
$var wire 1 9 B[4]~input_o $end
$var wire 1 : A[4]~input_o $end
$var wire 1 ; inst13~0_combout $end
$var wire 1 < A[2]~input_o $end
$var wire 1 = inst6|inst1~combout $end
$var wire 1 > A[1]~input_o $end
$var wire 1 ? A[0]~input_o $end
$var wire 1 @ inst6|inst6|inst4~0_combout $end
$var wire 1 A B[1]~input_o $end
$var wire 1 B B[0]~input_o $end
$var wire 1 C inst4|inst6|inst4~0_combout $end
$var wire 1 D B[2]~input_o $end
$var wire 1 E inst11~combout $end
$var wire 1 F inst6|inst6|inst3~0_combout $end
$var wire 1 G inst01928374|inst5~0_combout $end
$var wire 1 H inst01928374|inst4~combout $end
$var wire 1 I inst10~0_combout $end
$var wire 1 J inst1|inst6~0_combout $end
$var wire 1 K inst2|inst6~0_combout $end
$var wire 1 L B[3]~input_o $end
$var wire 1 M inst16~0_combout $end
$var wire 1 N inst12~combout $end
$var wire 1 O inst5|inst~2_combout $end
$var wire 1 P A[3]~input_o $end
$var wire 1 Q inst5|inst~combout $end
$var wire 1 R inst1|inst3~0_combout $end
$var wire 1 S inst5|inst3~0_combout $end
$var wire 1 T inst5|inst1~0_combout $end
$var wire 1 U inst5|inst1~combout $end
$var wire 1 V inst5|inst7|inst4~combout $end
$var wire 1 W inst3|inst6~0_combout $end
$var wire 1 X inst3|inst6~1_combout $end
$var wire 1 Y inst5|inst9|inst3~0_combout $end
$var wire 1 Z inst5|inst9|inst3~combout $end
$var wire 1 [ inst5|inst8|inst3~combout $end
$var wire 1 \ inst5|inst7|inst3~combout $end
$var wire 1 ] inst5|inst6|inst3~combout $end
$upscope $end
$upscope $end
$enddefinitions $end
#0
$dumpvars
b11100 !
0"
b11110 #
1$
0*
1)
0(
0'
0&
0%
0+
1,
x-
1.
1/
10
01
02
03
04
15
06
07
18
19
1:
0;
1<
0=
0>
0?
0@
1A
0B
1C
1D
0E
0F
0G
1H
0I
0J
1K
1L
0M
0N
1O
1P
0Q
1R
0S
0T
0U
0V
1W
1X
0Y
0Z
0[
1\
1]
$end
#5000
b1100 !
b1110 #
b110 #
b10 #
b11 #
1"
1B
0D
0L
09
0:
17
0H
1N
1M
1Y
0W
1Q
1@
1=
1S
16
0R
0O
0Y
0N
1*
1Z
1[
13
12
0Q
1O
1&
1'
0]
0Z
02
05
1Q
0)
0&
0[
03
0'
1[
13
1'
#10000
b1000 !
b1010 !
b1 #
0$
b11010 !
b10001 #
b10101 #
0A
1D
19
1>
0<
1:
08
1I
1E
1W
1F
1Y
0Q
1;
11
1J
0K
0Y
0O
1%
1Z
0[
1]
15
03
12
1U
1K
0X
1&
0'
1)
0Z
02
0\
1X
1Q
1Y
0&
14
0Y
1(
1[
1Z
12
13
1'
1&
0Z
02
0&
#15000
b10010 !
b10011 !
b11101 #
b11100 #
b10001 !
b11110 #
b1110 #
b1010 #
0B
1A
0D
1L
09
1?
0>
0P
1N
0M
0Q
1O
1Y
0N
0[
03
1Q
0O
0'
1Z
12
0Q
1&
1[
13
1'
0[
03
0'
#20000
0"
b10101 !
1$
b11101 !
b11111 !
b11010 #
07
18
19
1>
1<
1P
0I
1G
1T
0F
0=
1Q
0;
01
1R
0J
0K
0Y
1O
0%
1[
0]
05
13
0U
0X
1'
0)
1]
0Z
02
15
1\
1Y
1)
0&
04
0(
1Z
12
1&
#25000
b1111 !
b10010 #
b10000 #
b10100 #
0$
0A
1D
0L
0:
08
0C
1N
0Y
0W
0T
0Q
1F
1=
1M
0G
1;
11
0N
0E
1%
0Z
0[
0]
05
03
02
1X
0O
1U
1K
0&
0'
0)
1Y
0\
14
1(
1Z
12
1&
#30000
b1011 !
b1001 !
b100 #
b11001 !
b1100 #
b1110 #
1A
1L
09
0>
0<
1:
1I
1C
1N
0M
1E
1W
0Y
1Q
0;
01
0R
1J
0N
0E
0X
0K
0%
0Z
1[
1]
15
13
02
1K
1O
1Y
0Q
0&
1'
1)
0]
05
1X
0)
1Z
0[
03
12
0Y
1&
0'
0Z
02
0&
#35000
b1111 #
b10001 !
b1011 #
1$
b10101 !
b101 !
b11 #
b1 #
1<
0P
0:
1B
0A
0D
0L
18
0W
1Y
0F
1H
1N
1M
1;
0S
06
11
0X
0N
1\
1V
0U
1%
0*
1Z
12
04
0Y
1X
0O
0\
0V
0(
1&
1[
13
14
1Y
1Q
1(
1'
0Z
0[
03
02
0&
0'
1Z
1[
13
12
1&
1'
#40000
b10001 #
b10000 #
b1 !
0<
0B
19
1T
0=
0H
1G
0C
0M
1E
1]
1S
0;
01
16
15
1U
0K
0E
1\
1O
1)
1*
0%
0]
05
04
0\
0X
0U
1K
0(
0)
14
0Y
1\
1X
0Q
1(
04
1Y
0(
0Z
0[
03
02
0&
0'
1Z
12
1&
#45000
b0 !
b10 !
b10100 #
b10010 !
b11100 #
b1100 #
b1101 #
b10110 !
1B
1D
1L
09
0?
1>
1<
1:
0G
1C
1M
1W
1F
0Y
1Q
1;
11
1N
1E
1U
0O
1%
0Z
1[
1]
15
13
02
1O
0U
0K
0\
0Q
0&
1'
1)
14
1\
0X
1(
0[
03
04
1Y
0(
0'
1Z
12
1&
#50000
1"
0$
b1111 #
b110 !
b11111 #
17
08
0:
1A
19
0I
0Y
0W
0T
1Q
1=
0;
01
1R
0J
1K
1Y
0O
0%
0Z
1[
0]
05
13
02
1U
0K
0&
1'
0)
1]
1Z
12
15
0\
0Q
1)
1&
14
1(
0[
03
0'
#55000
b1110 !
b1111 !
b1101 !
b11011 #
b11010 #
b1001 !
0"
1$
0B
0D
1?
0>
0<
1P
07
18
1G
1T
0F
0=
1Q
0M
0U
0Y
0N
1[
13
1\
1X
1O
1'
0Z
02
04
1Y
0Q
0(
0&
1Z
0[
03
12
1&
0'
#60000
b11000 #
b11001 !
b10001 !
b10011 !
b11100 #
b10111 !
1"
1>
1<
0P
1:
0A
1D
17
1W
0X
0Y
1I
0C
0E
1;
11
1X
0R
1J
1E
0O
1%
0Z
0]
05
02
1Y
1Q
0&
0)
1]
15
1)
1Z
1[
13
12
1&
1'
#65000
b10110 !
b11101 #
0$
b11110 !
b11001 #
b11010 !
0"
1B
0D
0?
0<
1P
08
07
0G
1C
1N
0T
1F
1=
0X
0Q
1M
0E
1O
1U
1K
0[
03
0U
0\
0'
14
1\
1(
04
0(
#70000
b10001 #
b11000 !
b11001 !
b10000 #
1$
b10100 #
1?
0>
0B
1D
0L
18
1G
0C
0N
0M
0;
01
1R
1N
1E
1X
1U
0%
0]
05
0\
0X
0O
0U
0Y
0)
1]
15
14
1Y
1Q
1\
1(
1)
0Z
02
04
0(
0&
1Z
1[
13
12
1&
1'
#75000
b10110 #
b1001 !
b1 !
b101 !
1"
b11110 #
b111 !
b110 !
0?
1>
1<
0P
0:
1A
1L
17
0W
1H
0G
1X
0Y
0I
1C
0N
0S
06
0R
1Y
0E
1O
0*
0Z
02
1U
0Q
0&
0]
1Z
12
05
0\
0)
1&
0[
03
14
1(
0'
#80000
0$
b11010 #
b10 !
0"
b10010 #
b0 !
08
0>
0<
0D
0L
07
1M
1I
0H
1T
0F
0=
1N
1;
11
0N
1R
0J
0X
1\
1V
1%
04
1X
0O
0\
0V
0U
0K
0Y
0(
1]
1[
13
15
14
1Y
1\
0X
1(
1)
1'
0[
0Z
02
03
04
0Y
0(
0'
0&
1Z
12
1&
0Z
02
0&
#85000
b10 #
b0 #
b10000 !
b11000 !
b11001 !
1$
b100 #
b11101 !
1"
1?
1<
1P
1:
0A
1D
09
18
17
1W
1G
1F
1X
1Y
1E
0]
1S
16
05
0X
1J
0Y
1U
0)
1*
1Z
12
1Y
0U
0\
1&
0Z
02
14
1\
1(
0&
1Z
12
04
0(
1&
#90000
b1100 #
b11100 #
b10101 !
0$
0P
1L
19
08
1X
1Q
1N
0I
0C
0G
0Y
0X
1O
0J
0E
1[
13
1Y
0Q
1'
0Z
02
0&
1Z
0[
03
12
1&
0'
#95000
b10111 !
b10110 !
b10010 !
0"
b10100 #
b100 #
07
0L
09
0?
1>
0<
0N
0M
1E
1C
0T
1=
0;
1]
0S
06
15
01
1X
1N
1U
0E
0%
1)
0*
0Y
0X
0O
0\
0U
1K
14
1Y
1\
1X
1(
0Z
02
04
0Y
0(
0&
1Z
12
1&
0Z
02
0&
#100000
b101 #
b1 #
b11010 !
1$
b1001 #
1P
1B
0D
1L
18
0X
1Q
1I
0N
1M
1S
1;
11
16
1Y
0R
1J
1X
1N
1U
1*
1%
1[
0]
05
13
0\
0U
0Y
0X
1O
1'
0)
1Z
1]
15
12
14
1\
1Y
0Q
1(
1&
1)
0Z
02
04
0(
0&
1Z
0[
03
12
1&
0'
#105000
b1 #
0L
0N
1X
0O
0Y
1Q
0Z
1[
13
02
0&
1'
#110000
b11 #
b1010 !
b10011 #
b10 !
0$
b11011 #
0P
0:
1A
1L
19
08
1Y
0W
1T
0=
0I
1N
0X
1U
1R
0J
1O
1Z
12
0Y
0\
0U
0K
0Q
1&
0]
05
14
1\
1Q
1(
0)
0Z
0[
03
02
04
0(
0&
0'
1[
13
1'
#115000
b0 !
b1 !
b101 !
b11010 #
b11110 #
b10101 !
b1110 #
b110 #
0B
1D
0L
09
1?
0>
1<
1:
1I
0N
0M
1W
1Y
0Q
0;
01
0R
1J
1X
1N
1U
0%
1Z
0[
1]
15
03
12
0\
0U
1K
0Y
0X
0O
1&
0'
1)
0]
05
14
1\
1X
1Y
1(
0)
0Z
02
04
0Y
0(
0&
1Z
12
1&
0Z
02
0&
#120000
1"
b100 #
b11101 !
b11111 !
b11110 !
b0 #
17
0?
1>
1P
0A
0D
0X
1Q
0I
1E
1;
0S
06
11
1R
0J
0K
0\
1O
1%
0*
1[
13
14
1\
1U
1(
1'
1]
15
04
0\
0(
1)
14
1(
#125000
b1 #
b1001 #
0"
b1011 #
b11100 !
07
0>
1B
1A
1L
0T
0F
0@
1I
0N
0;
0]
1S
16
05
01
1Y
0%
0)
1*
1]
15
1)
1Z
12
1&
#130000
1$
b11000 !
b1000 !
b11011 #
b0 !
b10011 #
18
0L
19
0<
0P
0:
1N
0W
1T
0O
1X
0Y
1@
0X
0U
0Q
1Y
0Z
02
0Y
1\
0&
0[
1Z
12
03
04
0(
0'
1&
0Z
02
0&
#135000
b1 !
b10111 #
b10101 #
b11 !
0$
0A
1D
1?
1>
08
1G
1F
1M
0S
1;
11
06
1J
0N
1U
1O
0*
1%
0U
0O
0\
1Q
14
1\
0Q
1(
1[
13
04
0(
1'
0[
03
0'
#140000
1"
b101 #
b1011 !
b1101 #
17
1P
1L
09
1X
1Q
1N
0M
0I
0E
0;
01
1Y
0X
0N
0R
1K
0%
1[
13
0Y
1X
1O
0Q
1'
1Z
0]
05
12
1Y
1Q
1&
0)
0Z
0[
03
02
0&
0'
1Z
1[
13
12
1&
1'
#145000
b1111 !
b1110 !
0"
b11101 #
b110 !
07
19
0?
1<
0P
1M
1I
1E
0T
0G
1=
0Q
1;
1S
16
11
1N
1U
0O
1%
1*
0[
1]
15
03
0X
1O
0\
1Q
0'
1)
14
0Y
0Q
1(
1[
13
1'
0Z
0[
03
02
0&
0'
#150000
b11100 #
b10110 !
b11000 #
b10100 !
1$
b10000 !
0>
0<
1:
0B
0D
18
1T
0F
0@
1Y
1Q
1H
0C
0M
0;
0]
0S
06
05
01
0K
0E
0%
0)
0*
1Z
1[
13
12
0Q
0U
1K
1&
1'
1\
1Q
0[
03
04
0(
0'
1[
13
1'
#155000
b10001 !
b11001 #
b1 !
b11101 #
b11 !
0$
b111 !
1B
1D
1?
1>
1<
0:
08
0H
1G
1C
0N
0T
1F
1@
0O
0Y
0Q
1M
1;
11
1R
1N
1E
1X
1Q
0\
1%
0Z
0[
03
02
14
1\
0X
1O
1U
1Y
1(
0&
0'
1]
1[
13
15
04
0Y
0Q
0\
0(
1)
1'
1Z
12
14
1(
1&
0Z
0[
03
02
0&
0'
#160000
b1111 !
b11100 #
b11111 !
b11101 !
0B
0>
1P
1:
0I
0G
0C
1W
1T
1X
1Y
0=
0]
1S
16
05
0J
0E
0X
0U
0Y
0K
0)
1*
1Z
12
1Y
1\
1Q
1&
0Z
02
04
0(
0&
1Z
1[
13
12
1&
1'
#165000
b11110 #
b10110 #
b110 #
b11001 !
b1001 !
0<
0:
1A
0L
09
0W
0Y
0Q
0F
1I
1C
0N
0M
1E
0;
01
1X
1N
0E
0%
0Z
0[
1]
15
03
02
1Y
0X
0O
1U
0&
0'
1)
0Y
1Q
0\
1Z
12
14
1(
1&
0Z
1[
13
02
0&
1'
#170000
1"
b10 #
1$
b11 #
b1011 !
b1011 #
b11011 #
b11011 !
17
18
1>
1:
1B
0D
1L
19
1H
1E
1W
0T
1Y
0Q
1=
0N
1;
0S
06
11
0R
1J
0U
0Y
1%
0*
1Z
0[
03
12
1U
1K
1&
0'
0]
0Z
02
05
1\
1V
1X
1Q
0)
0&
04
1Y
0(
1Z
12
1&
0Z
02
0&
#175000
b11010 !
b10010 !
b10000 !
b10011 #
b11 #
b0 !
0L
09
0?
0>
0P
0:
1N
1M
0I
0E
0W
1T
0H
0Y
0=
0;
1]
1S
16
15
01
0X
0N
0J
0U
0\
0V
0%
1)
1*
1Z
0]
05
12
14
1Y
1X
1O
1U
0K
1\
1(
1&
0)
1[
0Z
02
13
04
0Y
0\
0X
0(
1'
0&
1Z
12
14
1Y
1(
1&
0Z
02
0&
1Z
12
1&
#180000
0"
b111 #
b1111 #
07
1D
1L
1N
1E
1;
11
0Y
1%
1]
15
1)
0Z
02
0&
#185000
b100 !
0$
b1110 #
b101 !
b11110 #
b11010 #
08
0B
0D
19
1?
1<
1I
0E
0T
1=
1R
1K
0Q
0]
05
0)
0[
03
0'
#190000
b11000 #
b1101 !
b1111 !
1"
b10000 #
b1011 !
1$
b1010 !
b0 #
0?
1>
0<
1P
0A
0L
09
17
18
1T
1H
1F
0=
1X
1Q
0N
1]
0S
0;
01
06
15
1J
0K
1)
0*
0%
1[
13
0U
1K
0Q
1'
1\
1Q
0[
03
04
0(
0'
1[
13
1'
#195000
b11010 !
b10 #
b10010 !
b10000 !
0"
b10100 !
1A
0>
1<
0P
1:
07
0I
1W
0T
0F
0@
1Y
1;
11
0J
0O
0Y
1%
1Z
12
1U
0Q
1&
0Z
02
0\
0&
0[
03
14
1(
0'
#200000
b11 #
b111 #
0$
b100 !
b1100 !
08
1P
0:
1B
1D
0M
1I
0H
1Y
0W
1@
1=
0;
0]
1S
16
05
01
1N
1O
0U
0%
0)
1*
1Z
1]
15
12
0O
1Q
1\
1&
1)
04
0Q
0(
1[
13
1'
0[
03
0'
#205000
b1101 !
1"
b101 !
1?
0P
17
1G
0X
1Q
0S
06
0R
1J
0Y
0*
1[
13
1U
1'
0]
0Z
02
05
0\
0)
0&
14
1(
#210000
b10111 #
b10011 #
b10101 !
0"
1:
0D
19
07
1Y
1W
1T
0Q
1F
0=
1M
0I
1;
11
1X
0N
1\
1V
1O
1%
1Z
0[
03
12
04
0Y
0O
1Q
0(
1&
0'
1[
13
0Q
1'
0[
03
0'
1[
0Z
02
13
1'
0&
#215000
b10010 #
1$
b10100 !
b10 #
b110 #
18
0?
0B
1D
09
1H
0G
1E
0T
0F
0@
1R
0J
0\
0V
0U
0K
1]
15
14
1\
1Q
1(
1)
0[
03
04
0(
0'
1[
13
1'
#220000
b100 #
b10110 !
b10010 !
b11010 !
0$
b10100 #
1>
0<
1P
0A
19
08
1F
1@
1O
1=
0X
0Q
0C
0H
0O
1Q
1Y
0E
0[
03
0Q
1U
1K
0'
1[
1Z
12
13
0\
1X
1Q
1'
1&
0[
03
14
0Y
1(
0'
1[
13
1'
0Z
02
0&
#225000
1"
b10000 #
b11110 !
17
1<
0D
1T
0=
1N
1E
0K
0X
1O
1Y
1Z
12
1&
#230000
b1110 !
b10001 #
b1111 !
b10011 #
0"
b10111 #
1B
1A
1D
1?
0:
07
1G
1C
0N
0E
0W
0T
0Y
0Q
1=
0R
1J
1E
1X
0O
1K
0Z
0[
03
02
1\
1V
1Y
0&
0'
0]
05
04
0(
0)
1[
1Z
12
13
1'
1&
#235000
b11111 !
b10110 #
b11110 !
b10100 #
b10000 #
0B
0A
0D
0?
1:
0G
0C
0E
1W
1T
0Y
1Q
0=
1R
0J
1N
1E
0[
03
0\
0V
0K
0X
1O
0'
1]
15
14
1Y
1(
1)
1[
0Z
02
13
1'
0&
1Z
12
1&
#240000
b11000 #
b11100 !
b11010 #
b11110 #
0>
1A
1D
1L
0T
0F
0@
1I
1C
0E
1K
1E
0Q
0U
0K
1\
1Q
0[
03
04
0(
0'
1[
13
1'
#245000
b1110 #
1"
b1111 #
b11101 !
17
1?
1B
09
1T
1G
1F
1@
0M
0E
1J
0Y
0N
1U
1K
0O
0Z
02
0\
1X
0&
14
1Y
1(
1Z
12
1&
#250000
1$
b1101 !
b111 #
b101 #
b1100 !
18
0A
0L
0?
0:
1M
0G
1E
1N
0W
0T
0F
0Y
0Q
1=
0;
0]
1S
16
05
01
0N
0J
0U
0%
0)
1*
0Z
0[
1]
15
03
02
1O
1U
0K
1\
0&
0'
1)
04
0\
0(
14
1(
#255000
b100 !
b110 !
b1 #
b10001 #
0"
0$
b10110 !
b11001 #
b11011 #
b10111 !
1A
0D
1L
19
1?
1>
0P
1:
07
08
0I
1N
0E
1W
1T
1G
0X
1Y
0=
1;
0S
06
11
0U
1%
0*
1Z
12
1\
1&
04
0(
#260000
b10011 !
b11010 #
b11011 !
b11001 !
1"
0B
0>
0<
1P
17
1I
0G
0T
1F
1=
1Q
0]
1S
16
05
0R
1J
1U
1K
0)
1*
1[
13
0\
0U
0Q
1'
1]
15
14
1\
1(
1)
0[
03
04
0(
0'
#265000
b11110 #
b1110 #
b11000 !
b1111 #
b11010 !
0?
1>
1B
1D
09
0M
0Y
0N
1X
0O
0Z
02
1Y
1Q
0&
1Z
1[
13
12
1&
1'
#270000
b1010 !
b10 !
0"
b11111 #
b11110 #
07
0B
19
0P
0:
1M
1E
0Y
0W
1T
0=
0]
0S
06
05
1Y
1N
0K
0\
0)
0*
0Z
02
14
0X
1O
0Q
1(
0&
1Z
12
0Y
1Q
1&
0[
03
0'
0Z
1[
13
02
0&
1'
#275000
b11100 #
b10010 !
b11010 !
b1100 #
1P
1:
0A
09
1Y
1W
0T
1=
0I
0M
0E
0;
01
1U
1K
1R
0J
0N
1\
0O
0%
1Z
12
04
0\
1X
0U
1O
0(
1&
1]
15
14
0Y
1\
0Q
1(
1)
04
0(
0Z
0[
03
02
0&
0'
#280000
1$
b100 #
b11011 !
b11001 !
1"
b110 #
b10001 !
18
1?
0>
0P
1A
0L
17
1M
1G
1E
1Q
1N
1;
1S
16
11
0N
0R
1J
0K
1%
1*
1[
0]
05
13
0O
1U
1K
0Q
1'
0)
1]
15
0\
1)
0[
03
14
1(
0'
#285000
0$
b1110 #
b10000 !
b10010 !
0"
b1100 #
b11010 !
08
0?
1>
1P
0A
1L
07
0M
0G
0E
1Q
1N
0;
0]
0S
06
05
01
0N
1R
0J
0X
0%
0)
0*
1[
13
1X
1O
0U
1Y
1'
1]
15
0Y
0Q
1\
1)
1Z
12
04
0(
1&
0Z
0[
03
02
0&
0'
#290000
b1000 #
b1001 #
b11001 #
b11000 !
b11011 #
0>
1B
1A
0D
19
0W
1T
0F
0@
1M
1S
1;
11
16
0R
0K
1N
1*
1%
0]
05
0X
1Q
0O
0)
1]
15
1Y
0Q
1)
1[
13
1'
1Z
0[
03
12
1&
0'
#295000
b11100 !
b1100 !
b10011 #
b100 !
b10010 #
b10 #
b0 #
0B
0A
0L
09
1<
0P
0:
0N
0M
1E
0T
1O
0Y
1@
0]
0S
0;
01
06
05
1N
1U
1Q
0)
0*
0%
0Z
02
0O
0\
0&
1[
13
14
0Q
1(
1'
0[
03
0'
#300000
1$
1"
b100 #
b1100 #
b11100 #
b11110 #
18
17
1A
1D
1L
19
1H
0E
0N
1R
0U
1K
1O
1\
1X
1]
15
04
1Y
0(
1)
1Z
12
1&
#305000
b101 !
b111 !
b10111 !
b11111 !
0$
0"
b10110 #
b110 #
08
07
0L
09
1?
1>
1P
1:
1I
0H
1N
1W
1T
0Y
0=
1S
16
0X
0O
1U
0K
1*
0Z
02
1Y
0\
0&
14
1(
1Z
12
1&
#310000
b10 #
b11110 !
b11100 !
b1100 !
b100 !
1$
1"
b1010 #
0?
0>
0P
0:
0D
1L
18
17
0W
0T
1H
0Y
1=
0N
1M
0I
0S
06
0U
1K
1O
1Y
1N
0*
0Z
02
1\
0O
0&
1Z
12
04
1Q
0(
1&
1[
13
1'
#315000
b1011 #
b1001 #
b11001 #
b110 !
b1110 !
0"
1>
1P
1B
0A
19
07
1F
1X
0Q
0H
0M
1E
1S
16
0N
1U
0K
1*
0[
03
1O
0\
1Q
0'
14
0Q
1(
1[
13
1'
0[
03
0'
#320000
b1010 !
b11101 #
b11010 !
0$
b11100 #
b1100 #
b11000 !
b10000 !
1"
0B
1D
09
0>
0<
0P
1:
08
17
0E
1T
0F
0@
0X
0Y
0S
1;
11
06
0U
0R
0*
1%
0Z
02
0&
0]
05
0)
#325000
b10001 !
b100 #
b110 #
b10101 !
b10 #
b101 !
1$
b10010 #
1A
0D
0L
19
1?
1<
0:
18
1N
1E
0T
1G
1@
0O
1Y
1Q
0;
1]
1S
16
15
01
1U
1R
0Q
1\
0Y
0%
1)
1*
1Z
1[
0]
05
13
12
04
0\
0(
1&
1'
0)
1]
0[
0Z
02
03
15
14
1(
1)
0'
0&
#330000
b10011 #
b111 !
b110 !
b11011 #
0$
0?
1>
1B
1L
08
0G
1F
0N
1M
0E
1O
1Y
1N
0U
1K
0O
1\
1Z
12
04
1Q
0(
1&
1[
13
1'
#335000
b11001 #
b10110 !
b11000 #
1:
0B
0A
0Y
1W
1T
0Q
0=
0C
1;
0S
06
11
1X
0K
0N
1E
1Y
1O
1%
0*
0Z
0[
03
02
0Y
0O
1U
0&
0'
1Z
12
1Q
0\
1&
0Z
02
14
1(
0&
1[
13
1'
#340000
0"
b10010 !
b10011 !
1$
b11010 #
b11 !
b11011 #
07
18
1B
1A
1?
0<
0:
0M
1I
1H
0E
1C
0W
1Y
0Q
0;
01
1J
1E
0X
1O
0%
1Z
0[
03
12
0Y
1Q
1&
0'
0Z
1[
13
02
0&
1'
#345000
b1011 #
b11 #
1"
b111 !
0$
17
1<
0L
09
08
0T
1=
1N
0H
1G
0U
1K
0O
1\
04
0(
#350000
b1111 !
b111 #
b1110 !
b101 #
b100 #
0"
b1010 !
1$
0B
0A
1D
0?
0<
1P
07
18
1H
0G
1T
0=
1X
0Q
1M
1;
11
0K
1Y
0N
1O
1%
0[
03
0O
0'
1Z
12
1Q
1&
1[
13
1'
#355000
b110 #
b111 #
1"
b1110 !
0$
17
1<
1B
1A
08
0T
1=
0H
0M
0E
0;
0]
1S
16
05
01
1U
1K
0R
1N
1O
0%
0)
1*
1]
15
0\
0O
1)
0]
05
14
0Q
1(
0)
0[
03
0'
#360000
b10111 #
b11111 #
b110 !
b111 !
b11101 #
0"
1?
0P
0A
1L
19
07
1G
0X
1Q
0N
1M
1E
0S
1;
11
06
1R
0Y
1X
1N
1\
1V
0*
1%
1[
13
04
0\
0V
1Y
0X
1O
0(
1'
1]
0[
03
15
14
0Y
0Q
1(
1)
0'
1[
13
1'
0Z
0[
03
02
0&
0'
#365000
b10111 !
1$
b1101 #
b11111 !
b11110 !
1"
18
09
0?
1P
1:
17
0G
1W
1T
1X
1Y
0=
0]
1S
16
05
0R
0X
0U
0Y
0K
0)
1*
1Z
12
1\
1Y
1Q
1&
1]
0Z
02
15
04
0(
1)
0&
1Z
1[
13
12
1&
1'
#370000
b1001 #
b1000 #
b0 #
b1110 !
0$
0:
0B
0D
0L
08
0Y
0W
0T
0Q
1=
0I
0N
0M
0;
0]
0S
06
05
01
1X
1K
1R
0J
1N
0%
0)
0*
0Z
0[
03
02
1Y
1Q
1U
0K
0O
0&
0'
1]
15
0\
0X
1)
1Z
1[
13
12
14
0Y
1(
1&
1'
0Z
02
0&
#375000
b1010 !
b10 #
b10 !
b11 !
b110 #
b111 #
b10011 !
1$
1B
1A
1D
1?
0<
0P
1:
18
1H
1W
0F
1Y
1M
1;
11
0N
0U
1O
1%
1Z
12
1X
0O
1\
0Q
1&
04
0Y
1Q
0(
0[
03
0'
0Z
1[
13
02
0&
1'
#380000
b10111 #
0"
b11111 #
b11101 #
b11011 !
b11010 !
b11100 #
b1010 !
07
0?
1P
0:
0B
0A
1L
19
0W
1T
1F
0X
1Y
0=
1I
0C
1N
0M
0E
0;
01
1U
1J
0Y
0N
1E
0%
1Z
12
0\
1X
1O
1&
0Z
02
14
1Y
0Q
1(
0&
1Z
0[
03
12
1&
0'
#385000
b11000 #
0$
b1000 #
b0 #
b11010 !
08
1:
0D
0L
09
0I
0H
0E
0Y
1W
0T
1Q
1=
1C
0J
1K
0X
1N
1E
0Z
1[
13
02
0K
0Q
1Y
0O
0&
1'
0[
1Z
12
03
0'
1&
#390000
b10 #
b110 #
b1110 #
b1010 !
0:
1A
1D
1L
0Y
0W
1T
1Q
0=
1I
0N
0E
1X
0R
1J
1O
0Z
1[
13
02
1Y
0U
1K
0Q
0&
1'
0]
05
1\
1Q
0)
1Z
0[
03
12
04
0(
1&
0'
1[
13
1'
#395000
b1000 !
b1100 !
1"
b1111 #
1$
b11111 #
b11100 !
17
1B
19
0>
1<
1:
18
1W
0T
0F
0@
0Y
0Q
1;
1S
16
11
1R
0J
0O
1Y
1%
1*
0Z
0[
1]
15
03
02
1U
1Q
0&
0'
1)
0]
1Z
12
05
0\
0)
1&
1[
13
14
1(
1'
#400000
b10100 !
b10111 #
b10110 !
b10110 #
b110 #
0B
0L
09
1>
0P
0I
1H
1N
1M
1E
1T
1F
1@
0Q
1]
0S
06
15
0R
1J
1O
0Y
0N
0K
1)
0*
0[
03
1\
1V
0U
0O
0'
0]
0Z
02
05
04
0\
0V
1Q
0(
0)
0&
1[
13
14
1(
1'
#405000
b10111 !
b100 #
0"
b111 !
b1111 !
b1101 !
b10100 #
0A
19
1?
0>
1P
0:
07
1I
0C
0M
0E
0W
0T
0H
1G
0F
0X
1Y
1=
0;
1]
1S
16
15
01
1N
1E
0Y
1U
1K
1X
1\
1O
0%
1)
1*
1Z
0]
05
12
04
0O
0U
0\
1Y
0(
1&
0)
0Z
02
14
0Q
1\
1(
0&
1Z
12
04
0(
1&
0[
03
0'
#410000
b10000 #
b1001 !
b11000 #
b1000 !
b11010 #
1"
b1010 !
b1010 #
0?
1>
0<
1A
0D
1L
09
17
1T
1H
0G
1F
0=
0I
1C
1M
0S
06
1U
0K
0E
0Y
0*
0\
0X
1Q
0U
1K
0Z
02
14
1Y
1\
1X
0Q
1(
0&
1[
13
04
0Y
0(
1'
1Z
0[
03
12
1&
0'
0Z
02
0&
#415000
b1011 #
b11010 !
b10010 !
b1111 #
b10000 !
0>
0P
1:
1B
1D
0F
0@
0X
1Y
1=
0H
1E
1;
1S
16
11
0J
0K
1%
1*
1Z
1]
15
12
1U
1Q
1&
1)
0\
1[
13
14
1(
1'
#420000
b10100 !
b111 #
b10101 !
b101 #
b10101 #
b10100 #
b11101 !
b10000 #
0B
0A
0D
0L
19
1?
1<
1P
1I
1G
0C
0N
0M
1W
1F
1@
1O
0=
0Q
1R
1J
0E
0O
0Y
1Q
0[
03
1K
0Q
0'
0]
0Z
1[
13
02
05
1X
1Q
0)
0&
1'
0[
03
1Y
0'
1[
13
1'
1Z
12
1&
#425000
0$
0"
b1101 !
b1111 !
b1011 !
b1010 !
b10010 #
08
07
1A
0?
1>
0<
0:
1M
0G
1E
1C
0W
0Y
0Q
1]
0S
06
15
1Y
0R
0U
0K
0E
1)
0*
0Z
0[
03
02
1Q
1U
1K
0&
0'
1Z
0]
05
12
1\
1V
0Q
1&
0)
1[
13
04
0(
1'
#430000
b11010 #
b1010 #
1$
1"
b11010 !
b1000 #
18
17
1:
0A
1L
09
1H
0Y
1W
0T
1Q
1=
1N
1R
0X
0U
1O
0[
03
0V
1Y
0Q
0'
1]
15
1)
#435000
b1001 #
b10010 !
b10000 !
b10100 !
b10101 !
b11001 #
0"
b101 !
b11011 #
1?
0>
1<
0P
0:
1B
1A
19
07
0W
0F
1X
0Y
0M
1E
0;
01
0X
0R
1Y
0N
0O
0%
0Z
02
0Y
1X
1O
1Q
0&
0]
1Z
12
05
1Y
0Q
0)
1&
0Z
1[
13
02
0&
1'
1Z
0[
03
12
1&
0'
#440000
b11111 #
b1 !
1"
b11101 #
0<
0A
1D
17
1T
0=
0I
0E
1R
0J
1U
0K
1]
15
0\
0X
1Q
1)
14
0Y
1(
1[
13
1'
0Z
02
0&
