simulation/qsim/Ula_pjct.msim.vcd
$comment
	File created using the following command:
		vcd file Ula_pjct.msim.vcd -direction
$end
$date
	Wed Oct 29 01:18:21 2025
$end
$version
	ModelSim Version 10.5b
$end
$timescale
	1ps
$end

$scope module BTwosComplement_vlg_vec_tst $end
$var reg 5 ! B [4:0] $end
$var wire 1 " S [4] $end
$var wire 1 # S [3] $end
$var wire 1 $ S [2] $end
$var wire 1 % S [1] $end
$var wire 1 & S [0] $end

$scope module i1 $end
$var wire 1 ' gnd $end
$var wire 1 ( vcc $end
$var wire 1 ) unknown $end
$var tri1 1 * devclrn $end
$var tri1 1 + devpor $end
$var tri1 1 , devoe $end
$var wire 1 - S[4]~output_o $end
$var wire 1 . S[3]~output_o $end
$var wire 1 / S[2]~output_o $end
$var wire 1 0 S[1]~output_o $end
$var wire 1 1 S[0]~output_o $end
$var wire 1 2 B[4]~input_o $end
$var wire 1 3 B[0]~input_o $end
$var wire 1 4 B[1]~input_o $end
$var wire 1 5 B[3]~input_o $end
$var wire 1 6 B[2]~input_o $end
$var wire 1 7 inst6|inst4~combout $end
$var wire 1 8 inst5|inst3~combout $end
$var wire 1 9 inst6|inst3~combout $end
$var wire 1 : inst7|inst3~combout $end
$var wire 1 ; inst8|inst3~combout $end
$upscope $end
$upscope $end
$enddefinitions $end
#0
$dumpvars
b11010 !
0&
1%
1$
0#
0"
0'
1(
x)
1*
1+
1,
0-
0.
1/
10
01
12
03
14
15
06
17
08
09
1:
1;
$end
#5000
b1010 !
b10 !
b0 !
b1 !
04
05
02
13
11
1&
19
18
1-
1.
1#
1"
#10000
b1001 !
b1011 !
b1010 !
14
15
03
01
0&
09
0.
0#
#15000
b10 !
b0 !
b1 !
04
05
13
11
1&
19
1.
1#
#20000
b1001 !
b1011 !
14
15
0;
09
0.
00
0%
0#
#25000
b1111 !
b1110 !
b110 !
16
05
03
01
0&
0:
19
1;
10
1.
0/
0$
1#
1%
#30000
b10 !
06
1:
1/
1$
#35000
b10010 !
b10011 !
b10111 !
16
12
13
11
1&
0:
08
0;
00
0-
0/
0$
0"
0%
#40000
b10101 !
b11101 !
b11001 !
04
06
15
1;
1:
09
0.
1/
10
1%
1$
0#
#45000
b11000 !
03
01
0&
0;
0:
19
1.
0/
00
0%
0$
1#
#50000
b1000 !
b0 !
05
02
07
09
18
1-
0.
0#
1"
08
0-
0"
#55000
b100 !
16
17
1:
19
1.
1/
1$
1#
18
1-
1"
#60000
b110 !
b1110 !
14
15
1;
0:
09
0.
0/
10
1%
0$
0#
#65000
b11110 !
b11010 !
06
12
1:
08
0-
1/
1$
0"
#70000
b11011 !
b1011 !
b1111 !
16
02
13
11
1&
0:
18
0;
00
1-
0/
0$
1"
0%
#75000
b1101 !
b101 !
b100 !
04
05
03
01
0&
1:
19
1.
1/
1$
1#
#85000
b10100 !
b10000 !
b10010 !
14
06
12
1;
08
0-
10
1%
0"
#90000
b10 !
b110 !
b100 !
04
16
02
0;
18
1-
00
0%
1"
#95000
b101 !
b10101 !
b10001 !
06
12
13
11
1&
08
1;
10
0-
0"
1%
#100000
b11001 !
b11011 !
b1011 !
b1111 !
14
16
15
02
0;
0:
09
18
1-
0.
0/
00
0%
0$
0#
1"
#105000
b1110 !
b110 !
b100 !
b0 !
04
06
05
03
01
07
0&
08
0-
0"
#110000
b10000 !
b10001 !
b11001 !
15
12
13
11
17
1&
18
1;
1:
1/
10
1-
1"
1%
1$
08
0-
0"
#115000
b11011 !
b11111 !
b11110 !
b10110 !
14
16
05
03
01
0&
0:
19
1.
0/
0$
1#
#120000
b110 !
b10 !
b1010 !
06
15
02
1:
09
18
1-
0.
1/
1$
0#
1"
#125000
b1000 !
b1100 !
b100 !
04
16
05
0;
19
1.
00
0%
1#
#130000
b10100 !
b10110 !
b10010 !
b11010 !
14
06
15
12
1;
09
08
0-
0.
10
1%
0#
0"
#135000
b11011 !
b11001 !
04
13
11
1&
#140000
b10001 !
b10000 !
05
03
01
07
0&
0;
0:
0/
00
0%
0$
18
1-
1"
#145000
b0 !
b100 !
b110 !
b111 !
14
16
02
13
11
17
1&
19
08
0-
1.
1#
0"
18
1-
1"
#150000
b1111 !
b11111 !
b11011 !
b11001 !
b11000 !
04
06
15
12
03
01
0&
08
0-
0"
#155000
b10000 !
b10010 !
14
05
1;
1:
1/
10
1%
1$
#160000
b10 !
b11 !
02
13
11
1&
18
0;
00
1-
1"
0%
#165000
b111 !
b10111 !
16
12
0:
08
0-
0/
0$
0"
#170000
b10101 !
b10001 !
b1 !
04
06
02
1;
1:
18
1-
1/
10
1%
1$
1"
#175000
b11 !
14
0;
00
0%
#180000
b1 !
04
1;
10
1%
#185000
b0 !
b10000 !
b10010 !
14
12
03
01
0&
08
0-
0"
#190000
b11010 !
b11110 !
b11111 !
16
15
13
11
1&
0:
09
0;
00
0.
0/
0$
0#
0%
#195000
b11101 !
b10101 !
b10001 !
b10000 !
04
06
05
03
01
07
0&
18
1-
1"
#200000
b0 !
b100 !
16
02
17
1:
19
08
0-
1.
1/
1$
1#
0"
18
1-
1"
#205000
b10100 !
b10000 !
06
12
07
0:
09
08
0-
0.
0/
0$
0#
0"
18
1-
1"
#210000
b10010 !
b11010 !
b11110 !
14
16
15
17
1;
10
1%
08
0-
0"
#215000
b11010 !
06
1:
1/
1$
#220000
b11110 !
16
0:
0/
0$
#225000
b11111 !
b10111 !
b10011 !
06
05
13
11
1&
1:
19
0;
00
1.
1/
1$
1#
0%
#230000
b10010 !
b10110 !
16
03
01
0&
0:
1;
10
0/
0$
1%
#235000
b10100 !
b11100 !
b11000 !
04
06
15
0;
00
0%
#240000
b11001 !
b11101 !
16
13
11
1&
09
1;
10
0.
0#
1%
#245000
b1101 !
b1111 !
b111 !
14
05
02
0;
19
18
1-
1.
00
0%
1#
1"
#250000
b10111 !
b11111 !
15
12
09
08
0-
0.
0#
0"
#255000
b11110 !
b11100 !
04
03
01
0&
1:
1/
1$
#260000
b11000 !
b10000 !
b10001 !
06
05
13
11
1&
19
1;
10
1.
1#
1%
#265000
b10011 !
b11011 !
14
15
0;
09
0.
00
0%
0#
#270000
b11010 !
b11000 !
b10000 !
04
05
03
01
07
0&
0:
0/
0$
18
1-
1"
#275000
b0 !
b100 !
b110 !
14
16
02
17
1;
19
08
0-
1.
10
1%
1#
0"
18
1-
1"
#280000
b1110 !
b1010 !
06
15
1:
09
0.
1/
1$
0#
#285000
b1011 !
b11 !
b111 !
16
05
13
11
1&
0:
19
0;
00
1.
0/
0$
1#
0%
#290000
b101 !
b1101 !
04
15
1;
09
0.
10
1%
0#
#295000
b1001 !
06
1:
1/
1$
#300000
b11001 !
b11000 !
b11010 !
14
12
03
01
0&
08
0-
0"
#305000
b10010 !
b10 !
05
02
19
18
1-
1.
1#
1"
#310000
b110 !
b111 !
b1111 !
16
15
13
11
1&
0:
09
0;
00
0.
0/
0$
0#
0%
#320000
b1101 !
b11101 !
b11100 !
b10100 !
04
05
12
03
01
0&
1:
19
08
0-
1.
1/
1$
1#
0"
#325000
b10110 !
b10111 !
b11111 !
14
15
13
11
1&
0:
09
0.
0/
0$
0#
#330000
b11011 !
06
1:
1/
1$
#335000
b11010 !
b11110 !
16
03
01
0&
0:
1;
10
0/
0$
1%
#340000
b1110 !
b110 !
05
02
19
18
1-
1.
1#
1"
#345000
b100 !
b101 !
b1 !
b10001 !
b11001 !
04
06
15
12
13
11
1&
1:
09
08
0-
0.
1/
1$
0#
0"
#350000
b11101 !
b1101 !
16
02
0:
18
1-
0/
0$
1"
#355000
b101 !
b1 !
06
05
1:
19
1.
1/
1$
1#
#360000
b10001 !
b11001 !
15
12
09
08
0-
0.
0#
0"
#365000
b11011 !
b11010 !
b11110 !
b1110 !
14
16
02
03
01
0&
0:
18
1-
0/
0$
1"
#370000
b1100 !
b1101 !
b1001 !
b11001 !
04
06
12
13
11
1&
1:
08
0-
1/
1$
0"
#375000
b11011 !
b11010 !
b11110 !
14
16
03
01
0&
0:
0/
0$
#380000
b10110 !
b10111 !
05
13
11
1&
19
0;
00
1.
1#
0%
#385000
b111 !
b11 !
06
02
1:
18
1-
1/
1$
1"
#390000
b10 !
b110 !
16
03
01
0&
0:
1;
10
0/
0$
1%
#395000
b100 !
b1100 !
b1101 !
b1001 !
04
06
15
13
11
1&
1:
09
0.
1/
1$
0#
#400000
b11001 !
b11011 !
14
12
0;
08
0-
00
0%
0"
#405000
b11010 !
b11110 !
b11100 !
04
16
03
01
0&
#410000
b1100 !
b1000 !
06
02
0:
19
18
1-
1.
0/
0$
1#
1"
#415000
b1010 !
b11010 !
14
12
1;
1:
09
08
0-
0.
1/
10
1%
1$
0#
0"
#420000
b10010 !
b10011 !
b11 !
05
02
13
11
1&
19
18
0;
00
1-
1.
1#
1"
0%
#425000
b10 !
b10010 !
12
03
01
0&
08
1;
10
0-
0"
1%
#435000
b10000 !
04
07
0;
0:
09
0.
0/
00
0%
0$
0#
18
1-
1"
#440000
b11000 !
b1000 !
b1010 !
14
15
02
17
1;
1:
08
0-
1/
10
1%
1$
0"
18
1-
1"
#445000
b11010 !
12
08
0-
0"
#450000
b11110 !
b11111 !
b11101 !
b1101 !
04
16
02
13
11
1&
0:
18
1-
0/
0$
1"
#455000
b101 !
b1 !
b11 !
b10011 !
14
06
05
12
0;
1:
19
08
0-
1.
1/
00
0%
1$
1#
0"
#460000
b10010 !
b10110 !
b10100 !
b100 !
04
16
02
03
01
0&
18
1-
1"
#465000
b101 !
b1 !
06
13
11
1&
1;
10
1%
#470000
b10001 !
b10000 !
b10100 !
16
12
03
01
0&
08
0;
00
0-
0"
0%
#475000
b11100 !
b1100 !
b1101 !
15
02
13
11
1&
09
18
1;
0:
0/
10
1-
0.
0#
1"
1%
0$
#480000
b1111 !
b11111 !
b11110 !
14
12
03
01
0&
08
0-
0"
#485000
b11010 !
b10010 !
b10000 !
b0 !
04
06
05
02
07
0;
18
1-
00
0%
1"
08
0-
0"
#490000
b1000 !
b1010 !
b11010 !
14
15
12
17
1;
1:
18
1-
1/
10
1%
1$
1"
08
0-
0"
#495000
b11110 !
b10110 !
b10100 !
04
16
05
0;
19
1.
00
0%
1#
#500000
b100 !
b0 !
06
02
07
0:
09
18
1-
0.
0/
0$
0#
1"
08
0-
0"
#505000
b1000 !
b1010 !
b11010 !
b11110 !
14
16
15
12
17
1;
18
1-
10
1%
1"
08
0-
0"
#510000
b10110 !
b10100 !
b10000 !
04
06
05
07
0;
00
0%
18
1-
1"
#515000
b0 !
b1000 !
b1010 !
14
15
02
17
1;
1:
08
0-
1/
10
1%
1$
0"
18
1-
1"
#520000
b1011 !
b11011 !
b10011 !
05
12
13
11
1&
19
08
0;
00
0-
1.
1#
0"
0%
#525000
b11011 !
15
09
0.
0#
#530000
b11010 !
b10010 !
05
03
01
0&
19
1;
10
1.
1#
1%
#535000
b10000 !
b0 !
b1 !
04
02
13
11
1&
18
1-
1"
#540000
b1001 !
b11001 !
b11000 !
15
12
03
01
0&
08
0;
0:
0/
00
0-
0"
0%
0$
#550000
b11100 !
b11110 !
b10110 !
b110 !
b111 !
14
16
05
02
13
11
1&
18
1-
1"
#555000
b101 !
b10101 !
04
12
1;
08
0-
10
1%
0"
#565000
b10001 !
b10000 !
b10010 !
14
06
03
01
0&
1:
1/
1$
#570000
b10011 !
13
11
1&
0;
00
0%
#575000
b10010 !
03
01
0&
1;
10
1%
#580000
b10 !
b11 !
02
13
11
1&
18
0;
00
1-
1"
0%
#585000
b1011 !
b1111 !
b1101 !
b11101 !
04
16
15
12
1;
0:
09
08
0-
0.
0/
10
1%
0$
0#
0"
#590000
b11100 !
b10100 !
b10110 !
14
05
03
01
0&
19
1.
1#
#595000
b11110 !
15
09
0.
0#
#600000
b11111 !
b11101 !
b10101 !
04
05
13
11
1&
19
1.
1#
#605000
b101 !
b111 !
14
02
0;
18
1-
00
0%
1"
#610000
b11 !
b1011 !
b11011 !
06
15
12
1:
09
08
0-
0.
1/
1$
0#
0"
#615000
b11001 !
b11101 !
04
16
1;
0:
0/
10
1%
0$
#620000
b11100 !
b10100 !
b100 !
b0 !
06
05
02
03
01
07
0&
18
0;
00
1-
1"
0%
08
0-
0"
#625000
b10 !
b11 !
b1011 !
b11011 !
14
15
12
13
11
17
1&
1:
18
1-
1/
1$
1"
08
0-
0"
#630000
b10011 !
05
19
1.
1#
#635000
b10111 !
16
0:
0/
0$
#640000
b111 !
b1111 !
15
02
09
18
1-
0.
0#
1"
#645000
b1011 !
b11011 !
06
12
1:
08
0-
1/
1$
0"
#650000
b11001 !
b11000 !
b10000 !
04
05
03
01
07
0&
0:
0/
0$
18
1-
1"
#655000
b10100 !
b10110 !
b10111 !
b11111 !
14
16
15
13
11
17
1&
08
0-
0"
#660000
b11101 !
b10101 !
04
05
1;
19
1.
10
1%
1#
#665000
b101 !
b1 !
b0 !
b10 !
14
06
02
03
01
0&
1:
18
1-
1/
1$
1"
#670000
b110 !
16
0:
0/
0$
#675000
b1110 !
b11110 !
b11111 !
b11101 !
b11001 !
04
06
15
12
13
11
1&
1:
09
08
0-
0.
1/
1$
0#
0"
#680000
b10001 !
b10101 !
16
05
0:
19
1.
0/
0$
1#
#685000
b101 !
b100 !
b1100 !
15
02
03
01
0&
09
18
0;
1:
1/
00
1-
0.
0#
1"
0%
1$
#690000
b1000 !
b11000 !
b11001 !
06
12
13
11
1&
08
1;
10
0-
0"
1%
#695000
b10001 !
b10101 !
16
05
0:
19
1.
0/
0$
1#
#700000
b10111 !
b10110 !
b11110 !
14
15
03
01
0&
09
0.
0#
#705000
b1110 !
b1100 !
b100 !
04
05
02
0;
1:
19
18
1-
1.
1/
00
0%
1$
1#
1"
#710000
b10100 !
b11100 !
15
12
09
08
0-
0.
0#
0"
#715000
b11101 !
13
11
1&
1;
0:
0/
10
1%
0$
#720000
b11111 !
b1111 !
b1110 !
14
02
03
01
0&
18
1-
1"
#725000
b110 !
b100 !
b10100 !
04
05
12
0;
1:
19
08
0-
1.
1/
00
0%
1$
1#
0"
#730000
b10101 !
13
11
1&
1;
0:
0/
10
1%
0$
#735000
b101 !
02
18
1-
1"
#740000
b1 !
b1001 !
b1011 !
b1010 !
14
06
15
03
01
0&
1:
09
0.
1/
1$
0#
#745000
b1110 !
16
0:
0/
0$
#750000
b11110 !
b11100 !
b11101 !
04
12
13
11
1&
08
0-
0"
#755000
b11001 !
b1001 !
b1011 !
b1010 !
14
06
02
03
01
0&
1:
18
1-
1/
1$
1"
#760000
b1110 !
b11110 !
b11111 !
16
12
13
11
1&
0:
08
0;
00
0-
0/
0$
0"
0%
#765000
b1111 !
b1110 !
02
03
01
0&
18
1;
10
1-
1"
1%
#770000
b110 !
b10 !
b10010 !
b10011 !
06
05
12
13
11
1&
1:
19
08
0;
00
0-
1.
1/
1$
1#
0"
0%
#775000
b10001 !
b11001 !
b11101 !
b1101 !
b1100 !
04
16
15
02
03
01
0&
09
18
1-
0.
0#
1"
#780000
b1110 !
b1111 !
14
13
11
1&
0:
0/
0$
#785000
b1011 !
b1001 !
b1000 !
04
06
03
01
0&
19
1.
1#
#795000
b0 !
b10 !
b11 !
14
05
13
11
1&
1:
1/
1$
#800000
b10011 !
b10111 !
b11111 !
b11110 !
16
15
12
03
01
0&
0:
09
08
1;
10
0-
0.
0/
0$
0#
0"
1%
#805000
b1110 !
02
18
1-
1"
#810000
b1100 !
b1000 !
b1001 !
b11001 !
04
06
12
13
11
1&
1:
08
0-
1/
1$
0"
#815000
b10001 !
b10101 !
b10100 !
16
05
03
01
0&
19
0;
00
1.
1#
0%
#820000
b100 !
b1100 !
15
02
09
18
1-
0.
0#
1"
#825000
b1101 !
b11101 !
12
13
11
1&
08
1;
0:
0/
10
0-
0"
1%
0$
#830000
b11111 !
b11011 !
b10011 !
14
06
05
0;
1:
19
1.
1/
00
0%
1$
1#
#840000
b10010 !
b10 !
b0 !
b1000 !
04
15
02
03
01
0&
0:
18
1-
0/
0$
1"
#845000
b1010 !
b10 !
14
05
1;
1:
1/
10
1%
1$
#850000
b11 !
13
11
1&
0;
00
0%
#855000
b10011 !
12
08
0-
0"
#860000
b10111 !
b11111 !
16
15
0:
09
0.
0/
0$
0#
#865000
b11110 !
b1110 !
b1010 !
b10 !
06
05
02
03
01
0&
1:
19
18
1;
10
1-
1.
1/
1$
1#
1"
1%
#870000
b0 !
b1 !
b101 !
b1101 !
04
16
15
13
11
1&
0:
09
0.
0/
0$
0#
#875000
b1100 !
b100 !
05
03
01
0&
19
0;
1:
1/
00
1.
1#
0%
1$
#880000
b10100 !
b10110 !
b10010 !
b10011 !
14
06
12
13
11
1&
08
0-
0"
#885000
b11 !
b1 !
04
02
1;
18
1-
10
1%
1"
#890000
b101 !
b111 !
14
16
0;
0:
0/
00
0%
0$
#895000
b10111 !
b10101 !
04
12
1;
08
0-
10
1%
0"
#900000
b10100 !
b100 !
b110 !
14
02
03
01
0&
18
1-
1"
#905000
b1110 !
b1010 !
b1011 !
06
15
13
11
1&
1:
09
0;
00
0.
1/
1$
0#
0%
#910000
b11011 !
b11001 !
b11101 !
04
16
12
1;
0:
08
0-
0/
10
1%
0$
0"
#915000
b10101 !
b101 !
b111 !
14
05
02
0;
19
18
1-
1.
00
0%
1#
1"
#920000
b10111 !
12
08
0-
0"
#925000
b10110 !
b110 !
02
03
01
0&
18
1;
10
1-
1"
1%
#930000
b10 !
b0 !
b1 !
04
06
13
11
1&
1:
1/
1$
#935000
b10001 !
b10011 !
b10010 !
14
12
03
01
0&
08
0-
0"
#940000
b10110 !
b110 !
b100 !
04
16
02
0;
18
1-
00
0%
1"
#945000
b1100 !
b11100 !
b11110 !
14
15
12
1;
0:
09
08
0-
0.
0/
10
1%
0$
0#
0"
#950000
b11111 !
b11011 !
b11001 !
04
06
13
11
1&
1:
1/
1$
#955000
b10001 !
b1 !
b0 !
05
02
03
01
07
0&
18
0;
0:
0/
00
1-
1"
0%
0$
08
0-
0"
#960000
b1 !
13
11
17
1&
1;
1:
19
1.
1/
10
1%
1$
1#
18
1-
1"
#965000
b101 !
b1101 !
16
15
0:
09
0.
0/
0$
0#
#970000
b11101 !
b10101 !
05
12
19
08
0-
1.
1#
0"
#975000
b10111 !
14
0;
00
0%
#980000
b10110 !
b110 !
02
03
01
0&
18
1;
10
1-
1"
1%
#985000
b10110 !
12
08
0-
0"
#990000
b10100 !
b100 !
04
02
0;
1:
18
1-
1/
00
0%
1$
1"
#995000
b0 !
b1000 !
06
15
0:
0/
0$
