simulation/qsim/Ula_pjct.msim.vcd
$comment
	File created using the following command:
		vcd file Ula_pjct.msim.vcd -direction
$end
$date
	Thu Oct 30 09:33:03 2025
$end
$version
	ModelSim Version 2020.1
$end
$timescale
	1ps
$end

$scope module Tens7Segments5BitsDecoder_vlg_vec_tst $end
$var reg 5 ! I [4:0] $end
$var wire 1 " D [6] $end
$var wire 1 # D [5] $end
$var wire 1 $ D [4] $end
$var wire 1 % D [3] $end
$var wire 1 & D [2] $end
$var wire 1 ' D [1] $end
$var wire 1 ( D [0] $end

$scope module i1 $end
$var wire 1 ) gnd $end
$var wire 1 * vcc $end
$var wire 1 + unknown $end
$var tri1 1 , devclrn $end
$var tri1 1 - devpor $end
$var tri1 1 . devoe $end
$var wire 1 / I[0]~input_o $end
$var wire 1 0 D[6]~output_o $end
$var wire 1 1 D[5]~output_o $end
$var wire 1 2 D[4]~output_o $end
$var wire 1 3 D[3]~output_o $end
$var wire 1 4 D[2]~output_o $end
$var wire 1 5 D[1]~output_o $end
$var wire 1 6 D[0]~output_o $end
$var wire 1 7 I[3]~input_o $end
$var wire 1 8 I[4]~input_o $end
$var wire 1 9 I[2]~input_o $end
$var wire 1 : inst28~combout $end
$var wire 1 ; I[1]~input_o $end
$var wire 1 < inst26~0_combout $end
$var wire 1 = inst23~0_combout $end
$var wire 1 > inst9~0_combout $end
$var wire 1 ? inst14~0_combout $end
$upscope $end
$upscope $end
$enddefinitions $end
#0
$dumpvars
b0 !
0(
0'
0&
0%
0$
0#
1"
0)
1*
x+
1,
1-
1.
0/
10
01
02
03
04
05
06
07
08
09
1:
0;
0<
0=
0>
0?
$end
#10000
b1 !
1/
#20000
b11 !
b10 !
0/
1;
#30000
b11 !
1/
#40000
b111 !
b101 !
b100 !
0/
0;
19
#50000
b101 !
1/
#60000
b111 !
b110 !
0/
1;
#70000
b111 !
1/
#80000
b1111 !
b1011 !
b1001 !
b1000 !
0/
0;
09
17
#90000
b1001 !
1/
#100000
b1011 !
b1010 !
0/
1;
1>
1=
1<
11
12
13
16
1(
1%
1$
1#
#110000
b1011 !
1/
#120000
b1111 !
b1101 !
b1100 !
0/
0;
19
#130000
b1101 !
1/
#140000
b1111 !
b1110 !
0/
1;
#150000
b1111 !
1/
#160000
b11111 !
b10111 !
b10011 !
b10001 !
b10000 !
0/
0;
09
07
18
#170000
b10001 !
1/
#180000
b10011 !
b10010 !
0/
1;
#190000
b10011 !
1/
#200000
b10111 !
b10101 !
b10100 !
0/
0;
19
1?
0>
0=
0:
00
02
03
06
14
1&
0(
0%
0$
0"
#210000
b10101 !
1/
#220000
b10111 !
b10110 !
0/
1;
#230000
b10111 !
1/
#240000
b11111 !
b11011 !
b11001 !
b11000 !
0/
0;
09
17
#250000
b11001 !
1/
#260000
b11011 !
b11010 !
0/
1;
#270000
b11011 !
1/
#280000
b11111 !
b11101 !
b11100 !
0/
0;
19
#290000
b11101 !
1/
#300000
b11111 !
b11110 !
0/
1;
0?
1=
12
04
0&
1$
#310000
b11111 !
1/
#320000
b1111 !
b111 !
b11 !
b1 !
b0 !
0/
0;
09
07
08
0=
0<
1:
10
01
02
0$
0#
1"
#330000
b1 !
1/
#340000
b11 !
b10 !
0/
1;
#350000
b11 !
1/
#360000
b111 !
b101 !
b100 !
0/
0;
19
#370000
b101 !
1/
#380000
b111 !
b110 !
0/
1;
#390000
b111 !
1/
#400000
b1111 !
b1011 !
b1001 !
b1000 !
0/
0;
09
17
#410000
b1001 !
1/
#420000
b1011 !
b1010 !
0/
1;
1>
1=
1<
11
12
13
16
1(
1%
1$
1#
#430000
b1011 !
1/
#440000
b1111 !
b1101 !
b1100 !
0/
0;
19
#450000
b1101 !
1/
#460000
b1111 !
b1110 !
0/
1;
#470000
b1111 !
1/
#480000
b11111 !
b10111 !
b10011 !
b10001 !
b10000 !
0/
0;
09
07
18
#490000
b10001 !
1/
#500000
b10011 !
b10010 !
0/
1;
#510000
b10011 !
1/
#520000
b10111 !
b10101 !
b10100 !
0/
0;
19
1?
0>
0=
0:
00
02
03
06
14
1&
0(
0%
0$
0"
#530000
b10101 !
1/
#540000
b10111 !
b10110 !
0/
1;
#550000
b10111 !
1/
#560000
b11111 !
b11011 !
b11001 !
b11000 !
0/
0;
09
17
#570000
b11001 !
1/
#580000
b11011 !
b11010 !
0/
1;
#590000
b11011 !
1/
#600000
b11111 !
b11101 !
b11100 !
0/
0;
19
#610000
b11101 !
1/
#620000
b11111 !
b11110 !
0/
1;
0?
1=
12
04
0&
1$
#630000
b11111 !
1/
#640000
b1111 !
b111 !
b11 !
b1 !
b0 !
0/
0;
09
07
08
0=
0<
1:
10
01
02
0$
0#
1"
#650000
b1 !
1/
#660000
b11 !
b10 !
0/
1;
#670000
b11 !
1/
#680000
b111 !
b101 !
b100 !
0/
0;
19
#690000
b101 !
1/
#700000
b111 !
b110 !
0/
1;
#710000
b111 !
1/
#720000
b1111 !
b1011 !
b1001 !
b1000 !
0/
0;
09
17
#730000
b1001 !
1/
#740000
b1011 !
b1010 !
0/
1;
1>
1=
1<
11
12
13
16
1(
1%
1$
1#
#750000
b1011 !
1/
#760000
b1111 !
b1101 !
b1100 !
0/
0;
19
#770000
b1101 !
1/
#780000
b1111 !
b1110 !
0/
1;
#790000
b1111 !
1/
#800000
b11111 !
b10111 !
b10011 !
b10001 !
b10000 !
0/
0;
09
07
18
#810000
b10001 !
1/
#820000
b10011 !
b10010 !
0/
1;
#830000
b10011 !
1/
#840000
b10111 !
b10101 !
b10100 !
0/
0;
19
1?
0>
0=
0:
00
02
03
06
14
1&
0(
0%
0$
0"
#850000
b10101 !
1/
#860000
b10111 !
b10110 !
0/
1;
#870000
b10111 !
1/
#880000
b11111 !
b11011 !
b11001 !
b11000 !
0/
0;
09
17
#890000
b11001 !
1/
#900000
b11011 !
b11010 !
0/
1;
#910000
b11011 !
1/
#920000
b11111 !
b11101 !
b11100 !
0/
0;
19
#930000
b11101 !
1/
#940000
b11111 !
b11110 !
0/
1;
0?
1=
12
04
0&
1$
#950000
b11111 !
1/
#960000
b1111 !
b111 !
b11 !
b1 !
b0 !
0/
0;
09
07
08
0=
0<
1:
10
01
02
0$
0#
1"
#970000
b1 !
1/
#980000
b11 !
b10 !
0/
1;
#990000
b11 !
1/
