simulation/qsim/Ula_pjct.msim.vcd
$comment
	File created using the following command:
		vcd file Ula_pjct.msim.vcd -direction
$end
$date
	Fri Oct 31 22:22:44 2025
$end
$version
	ModelSim Version 10.5b
$end
$timescale
	1ps
$end

$scope module Central_vlg_vec_tst $end
$var reg 5 ! A [4:0] $end
$var reg 5 " B [4:0] $end
$var reg 3 # S [2:0] $end
$var wire 1 $ AD [6] $end
$var wire 1 % AD [5] $end
$var wire 1 & AD [4] $end
$var wire 1 ' AD [3] $end
$var wire 1 ( AD [2] $end
$var wire 1 ) AD [1] $end
$var wire 1 * AD [0] $end
$var wire 1 + AU [6] $end
$var wire 1 , AU [5] $end
$var wire 1 - AU [4] $end
$var wire 1 . AU [3] $end
$var wire 1 / AU [2] $end
$var wire 1 0 AU [1] $end
$var wire 1 1 AU [0] $end
$var wire 1 2 BD [6] $end
$var wire 1 3 BD [5] $end
$var wire 1 4 BD [4] $end
$var wire 1 5 BD [3] $end
$var wire 1 6 BD [2] $end
$var wire 1 7 BD [1] $end
$var wire 1 8 BD [0] $end
$var wire 1 9 BU [6] $end
$var wire 1 : BU [5] $end
$var wire 1 ; BU [4] $end
$var wire 1 < BU [3] $end
$var wire 1 = BU [2] $end
$var wire 1 > BU [1] $end
$var wire 1 ? BU [0] $end
$var wire 1 @ F [5] $end
$var wire 1 A F [4] $end
$var wire 1 B F [3] $end
$var wire 1 C F [2] $end
$var wire 1 D F [1] $end
$var wire 1 E F [0] $end
$var wire 1 F FD [6] $end
$var wire 1 G FD [5] $end
$var wire 1 H FD [4] $end
$var wire 1 I FD [3] $end
$var wire 1 J FD [2] $end
$var wire 1 K FD [1] $end
$var wire 1 L FD [0] $end
$var wire 1 M FU [6] $end
$var wire 1 N FU [5] $end
$var wire 1 O FU [4] $end
$var wire 1 P FU [3] $end
$var wire 1 Q FU [2] $end
$var wire 1 R FU [1] $end
$var wire 1 S FU [0] $end
$var wire 1 T LA [4] $end
$var wire 1 U LA [3] $end
$var wire 1 V LA [2] $end
$var wire 1 W LA [1] $end
$var wire 1 X LA [0] $end
$var wire 1 Y LB [4] $end
$var wire 1 Z LB [3] $end
$var wire 1 [ LB [2] $end
$var wire 1 \ LB [1] $end
$var wire 1 ] LB [0] $end
$var wire 1 ^ LS [2] $end
$var wire 1 _ LS [1] $end
$var wire 1 ` LS [0] $end
$var wire 1 a STATUS $end

$scope module i1 $end
$var wire 1 b gnd $end
$var wire 1 c vcc $end
$var wire 1 d unknown $end
$var tri1 1 e devclrn $end
$var tri1 1 f devpor $end
$var tri1 1 g devoe $end
$var wire 1 h ~QUARTUS_CREATED_GND~I_combout $end
$var wire 1 i S[1]~input_o $end
$var wire 1 j S[2]~input_o $end
$var wire 1 k S[0]~input_o $end
$var wire 1 l A[0]~input_o $end
$var wire 1 m B[4]~input_o $end
$var wire 1 n B[0]~input_o $end
$var wire 1 o A[4]~input_o $end
$var wire 1 p A[2]~input_o $end
$var wire 1 q A[1]~input_o $end
$var wire 1 r B[2]~input_o $end
$var wire 1 s B[1]~input_o $end
$var wire 1 t inst|inst4|inst9~0_combout $end
$var wire 1 u inst|inst4|inst7~0_combout $end
$var wire 1 v B[3]~input_o $end
$var wire 1 w A[3]~input_o $end
$var wire 1 x inst|inst4|inst2~1_combout $end
$var wire 1 y inst|inst4|inst2~0_combout $end
$var wire 1 z inst|inst4|inst2~combout $end
$var wire 1 { inst|inst37~0_combout $end
$var wire 1 | inst99|inst|inst26~0_combout $end
$var wire 1 } inst99|inst1|inst6|inst10~0_combout $end
$var wire 1 ~ inst99|inst1|inst4|inst13~0_combout $end
$var wire 1 !! inst99|inst1|inst3|inst8~0_combout $end
$var wire 1 "! inst99|inst1|inst1|inst18~0_combout $end
$var wire 1 #! inst99|inst1|inst5|inst11~0_combout $end
$var wire 1 $! inst99|inst1|inst2|inst5~0_combout $end
$var wire 1 %! inst99|inst1|inst|inst7~0_combout $end
$var wire 1 &! inst5|inst|inst26~0_combout $end
$var wire 1 '! inst5|inst1|inst6|inst10~0_combout $end
$var wire 1 (! inst5|inst1|inst4|inst13~0_combout $end
$var wire 1 )! inst5|inst1|inst3|inst8~0_combout $end
$var wire 1 *! inst5|inst1|inst1|inst18~0_combout $end
$var wire 1 +! inst5|inst1|inst5|inst11~0_combout $end
$var wire 1 ,! inst5|inst1|inst2|inst5~0_combout $end
$var wire 1 -! inst5|inst1|inst|inst7~0_combout $end
$var wire 1 .! inst|inst5|inst19|inst6|inst3~combout $end
$var wire 1 /! inst|inst5|inst01928374|inst6~0_combout $end
$var wire 1 0! inst|inst5|inst10~combout $end
$var wire 1 1! inst|inst5|inst1|inst6~combout $end
$var wire 1 2! inst|inst|inst~1_combout $end
$var wire 1 3! inst|inst31~0_combout $end
$var wire 1 4! inst|inst5|inst19|inst7|inst3~combout $end
$var wire 1 5! inst|inst5|inst11~0_combout $end
$var wire 1 6! inst|inst5|inst2|inst~combout $end
$var wire 1 7! inst|inst5|inst18|inst12~0_combout $end
$var wire 1 8! inst|inst5|inst19|inst11~0_combout $end
$var wire 1 9! inst|inst5|inst20|inst11~0_combout $end
$var wire 1 :! inst|inst5|inst13~0_combout $end
$var wire 1 ;! inst|inst|inst~0_combout $end
$var wire 1 <! inst|inst5|inst11~combout $end
$var wire 1 =! inst|inst5|inst19|inst8|inst3~combout $end
$var wire 1 >! inst|inst5|inst20|inst6|inst4~0_combout $end
$var wire 1 ?! inst|inst5|inst12~combout $end
$var wire 1 @! inst|inst5|inst3|inst3~combout $end
$var wire 1 A! inst|inst5|inst14|inst3~0_combout $end
$var wire 1 B! inst|inst5|inst14|inst3~combout $end
$var wire 1 C! inst|inst25~0_combout $end
$var wire 1 D! inst|inst2|inst6|inst4~combout $end
$var wire 1 E! inst|inst33~0_combout $end
$var wire 1 F! inst|inst33~combout $end
$var wire 1 G! inst|inst2|inst7|inst4~combout $end
$var wire 1 H! inst|inst32~0_combout $end
$var wire 1 I! inst|inst32~combout $end
$var wire 1 J! inst|inst31~1_combout $end
$var wire 1 K! inst|inst31~2_combout $end
$var wire 1 L! inst|inst30~0_combout $end
$var wire 1 M! inst|inst5|inst1|inst3~combout $end
$var wire 1 N! inst|inst30~1_combout $end
$var wire 1 O! inst|inst28~0_combout $end
$var wire 1 P! inst18|inst|inst28~combout $end
$var wire 1 Q! inst18|inst|inst26~0_combout $end
$var wire 1 R! inst18|inst|inst23~0_combout $end
$var wire 1 S! inst18|inst|inst14~0_combout $end
$var wire 1 T! inst18|inst|inst9~combout $end
$var wire 1 U! inst18|inst1|inst6|inst11~0_combout $end
$var wire 1 V! inst18|inst1|inst4|inst13~0_combout $end
$var wire 1 W! inst18|inst1|inst3|inst8~0_combout $end
$var wire 1 X! inst18|inst1|inst1|inst18~0_combout $end
$var wire 1 Y! inst18|inst1|inst5|inst11~0_combout $end
$var wire 1 Z! inst18|inst1|inst2|inst5~0_combout $end
$var wire 1 [! inst18|inst1|inst|inst8~0_combout $end
$upscope $end
$upscope $end
$enddefinitions $end
#0
$dumpvars
b10 !
b11000 "
b11 #
0*
0)
0(
0'
0&
0%
1$
01
00
1/
0.
0-
1,
0+
08
07
06
05
04
03
12
0?
0>
0=
0<
0;
0:
09
0E
0D
0C
0B
0A
0@
0L
0K
0J
0I
0H
0G
1F
0S
0R
0Q
0P
0O
0N
1M
0X
1W
0V
0U
0T
0]
0\
0[
1Z
1Y
1`
1_
0^
0a
0b
1c
xd
1e
1f
1g
0h
1i
0j
1k
0l
1m
0n
0o
0p
1q
0r
0s
1t
1u
1v
0w
0x
0y
0z
0{
0|
0}
1~
0!!
0"!
1#!
0$!
0%!
0&!
0'!
0(!
0)!
0*!
0+!
0,!
0-!
1.!
0/!
00!
01!
02!
03!
14!
05!
06!
07!
08!
19!
0:!
0;!
1<!
1=!
1>!
0?!
1@!
1A!
1B!
0C!
0D!
0E!
0F!
1G!
0H!
0I!
0J!
0K!
0L!
1M!
0N!
0O!
1P!
0Q!
0R!
0S!
0T!
1U!
0V!
0W!
0X!
0Y!
0Z!
0[!
$end
#5000
b10010 !
b11010 !
b10000 "
b10100 "
b10110 "
b10111 "
b111 #
b110 #
0k
1j
1n
1s
1r
0v
1w
1o
1T
1U
0Z
1[
1\
1]
1^
0`
1E!
18!
04!
0G!
0t
1L!
0>!
0#!
0~
1}
1|
1*!
1)!
1(!
1'!
19
1:
1;
1<
1%
1&
1)
1*
1+
0,
0/
16!
0A!
1:!
1N!
1F!
1A
1D
0B!
0U!
1T!
1R!
1Q!
1G
1H
1K
1L
0M
#10000
b11110 !
b11111 !
b100 #
b1111 !
b10011 "
b10001 "
b10000 "
b0 #
0n
0s
0r
0i
0j
1l
1p
0o
0T
1V
1X
0^
0_
0[
0\
0]
0E!
0=!
08!
1t
0L!
1;!
1G!
1D!
09!
1>!
1$!
1!!
0}
1O!
0*!
0)!
0(!
0:
0;
0<
1E
0+
1-
10
1?!
0:!
1B!
0@!
0N!
1C!
1W!
1O
1@
0D
0B!
1@!
0C!
1N!
1K!
1X!
1V!
1U!
1M
1N
1P
1C
1D
0@
1I!
0F!
0X!
0U!
0T!
1S!
0R!
0P!
0F
0H
1I
0K
0L
0M
0P
0A
1B
1Z!
0V!
1T!
0S!
1R!
1P!
1F
1H
0I
1K
1L
0N
1R
#15000
b1101 !
b1 #
b11101 !
b10001 "
b101 #
1n
1k
1j
0q
1o
1T
0W
1^
1`
1]
1=!
18!
14!
1y
0u
0;!
10!
1/!
0G!
0D!
0>!
19!
15!
13!
0$!
1~
0O!
1-!
1*!
1)!
1(!
1:
1;
1<
1?
0E
1,
00
0<!
1:!
0?!
11!
03!
0@!
0K!
0N!
0I!
1{
1[!
0Z!
1X!
1P
0R
1S
1a
0B
0D
0C
1B!
0[!
0X!
0W!
1U!
0T!
0R!
0Q!
0G
0H
0K
0L
1M
0O
0P
0S
#20000
b1 "
b10101 !
b1001 "
b10001 !
b10000 !
b1101 "
b100 #
b0 !
b1100 "
b0 #
0k
0j
0l
0p
0w
0o
0n
1r
1v
0m
0Y
1Z
1[
0]
0T
0U
0V
0X
0^
0`
1<!
09!
06!
05!
00!
1u
0t
1>!
13!
0/!
08!
0.!
1;!
0-!
1+!
0*!
0)!
0'!
1&!
0!!
0~
1}
0|
0{
0a
0%
0&
0)
0*
1+
0,
0-
13
14
17
18
09
0;
0<
1=
0?
0M!
01!
0:!
0u
0<!
16!
0B!
1@!
1N!
1K!
1I!
1C!
1@
1B
1C
1D
0C!
0N!
1[!
1X!
1W!
0U!
1T!
1R!
1Q!
1G
1H
1K
1L
0M
1O
1P
1S
0D
0@
0[!
1Y!
0X!
0W!
1V!
1N
0O
0P
1Q
0S
#25000
b10 #
b1000 !
b100 "
b11 #
b111 #
0v
1w
1k
1i
1j
1^
1_
1`
1U
0Z
1J!
1H!
0;!
0=!
1?!
0}
1-!
0+!
1*!
1)!
0(!
0&!
03
04
07
08
0:
1;
1<
0=
1?
0+
#30000
b1010 !
b10100 "
b10000 "
b11010 !
b10001 "
b10010 !
b11001 "
b11 #
0j
1n
0r
1v
1m
1q
0w
1o
1T
0U
1W
1Y
1Z
0[
1]
0^
18!
04!
1.!
0y
1u
0H!
1t
0?!
1<!
19!
06!
15!
10!
0J!
0>!
03!
1#!
1~
0-!
0*!
0<
0?
1,
1/
1?!
11!
0<!
1:!
1B!
0@!
0K!
0I!
0B
0C
0Y!
0V!
1U!
0T!
0R!
0Q!
0G
0H
0K
0L
1M
0N
0Q
#35000
b1 #
b1001 "
b1000 "
b11010 !
b0 "
b101 #
1w
0n
0v
0m
0i
1j
1^
0_
0Y
0Z
0]
1U
00!
1<!
09!
16!
0u
1D!
1G!
1>!
13!
1=!
0)!
1'!
0#!
0~
1}
1|
1%
1&
1)
1*
1+
0,
0/
19
0;
0B!
1@!
17!
0:!
1A!
1M!
03!
01!
1{
1a
1B!
0@!
07!
#40000
b11110 !
b100 #
0k
1p
1V
0`
14!
1%!
1"!
1!!
0}
0{
0a
0+
1-
1.
11
06!
#45000
b10 "
b11111 !
b110 "
b1111 !
b110 #
b111 !
b10 #
1i
0j
1l
0w
0o
1s
1r
1[
1\
0T
0U
1X
0^
1_
1J!
0G!
0D!
05!
1x
0t
1L!
0>!
10!
08!
04!
1u
1,!
0'!
0%!
1~
1}
0|
0%
0&
0)
0*
1+
1,
01
09
1>
0A!
0M!
11!
0J!
0<!
1E!
1H!
1N!
1K!
1C
1D
0B!
1@!
1I!
1F!
0K!
1Z!
0U!
0M
1R
0C
1A
1B
1S!
1Q!
0P!
0F
1G
1I
#50000
b10110 "
b10100 "
b110 !
b10110 !
b0 #
b100 #
0i
1j
0l
1o
0s
1m
1Y
0\
1T
0X
1^
0_
0E!
0?!
1<!
19!
16!
15!
00!
1y
0L!
1>!
1t
0=!
18!
14!
13!
0H!
1-!
0,!
1*!
1)!
1$!
0"!
0!!
0~
0}
1{
1a
0+
0,
0-
0.
10
1;
1<
0>
1?
17!
1B!
0@!
1:!
0u
1M!
03!
01!
0<!
0I!
0N!
0F!
0A
0D
0B
07!
0{
0Z!
1U!
0S!
0Q!
1P!
1F
0G
0I
1M
0R
0a
#55000
b10100 !
b101 #
b100 "
b110 "
b100 !
b111 #
1s
0m
1k
1i
0q
0o
0T
0W
1_
1`
0Y
1\
1=!
08!
04!
0.!
1u
1L!
0t
10!
1?!
1<!
09!
06!
05!
0>!
1%!
0$!
1"!
1!!
0-!
1,!
0*!
0)!
0;
0<
1>
0?
1-
1.
00
11
0<!
0:!
0B!
0u
1N!
1D
1@!
1Y!
1V!
0U!
0M
1N
1Q
#60000
b111 "
b1111 "
b0 !
b10 !
b110 #
b1101 "
0k
1q
0p
1n
0s
1v
1Z
0\
1]
0V
1W
0`
0?!
0x
0L!
00!
1t
0y
14!
1.!
0,!
1)!
1(!
1&!
0%!
1#!
0"!
0!!
1~
1,
0-
0.
1/
01
13
14
17
18
1:
1;
0>
16!
0N!
0D
0Y!
0V!
1U!
1M
0N
0Q
#65000
b1010 !
b10 #
b11010 !
b101 "
b111 "
1s
0v
0j
1w
1o
1T
1U
0^
0Z
1\
1E!
18!
04!
1H!
10!
1?!
0t
0#!
0~
1}
1|
1O!
1*!
1'!
0&!
03
04
07
08
19
1<
1E
1%
1&
1)
1*
1+
0,
0/
0M!
11!
06!
1A!
1I!
1F!
1[!
1X!
1W!
1V!
1N
1O
1P
1S
1A
1B
1B!
0[!
1Z!
0X!
0V!
0U!
1S!
1Q!
0P!
0F
1G
1I
0M
0N
0P
1R
0S
#70000
b11 "
b11011 !
b10011 "
b0 #
b11111 !
b1 #
b10111 !
b101 #
1k
0i
1j
1l
1p
0w
0r
1m
1Y
0[
0U
1V
1X
1^
0_
1`
0E!
0?!
1<!
19!
16!
15!
00!
1y
1u
1t
0H!
0=!
14!
1/!
0.!
0*!
0'!
1"!
1!!
1~
0|
0O!
1{
1a
0E
0%
0&
0)
0*
1,
1-
1.
09
0<
1M!
01!
0B!
0@!
0u
1:!
0<!
0A!
0I!
0{
0F!
1[!
0Z!
1X!
1P
0R
1S
0A
0a
0B
1B!
1{
0[!
0X!
0W!
1U!
0S!
0Q!
1P!
1F
0G
0I
1M
0O
0P
0S
1a
#75000
b10010 "
b10101 !
b101 !
b10 "
b1 !
b100 #
b1001 !
0k
0q
0p
1w
0o
0n
0m
0Y
0]
0T
1U
0V
0W
0`
1?!
1<!
09!
06!
10!
0y
1u
0/!
08!
0t
1+!
0)!
0"!
0~
0}
0{
0a
0+
0,
0.
0;
1=
0:!
0B!
1@!
1{
1a
#80000
b1010 "
b1000 "
b1100 "
b110 #
b1101 "
b1011 !
b11011 !
b11101 "
b11111 !
b111 #
1q
1p
1o
1k
1i
1n
0s
1r
1v
1m
1Y
1Z
1[
0\
1]
1_
1`
1T
1V
1W
0<!
19!
16!
05!
1y
1x
1t
1L!
13!
1/!
1=!
18!
0+!
1)!
1&!
0{
1$!
1|
1%
1&
1)
1*
10
0a
13
14
17
18
1;
0=
1:!
0@!
0M!
11!
0u
1<!
06!
1N!
1D
1Y!
1V!
0U!
0M
1N
1Q
#85000
b11 #
b10111 !
b10101 "
b10101 !
b101 !
0v
0q
0w
0o
0j
0^
0T
0U
0W
0Z
0L!
08!
04!
0y
1u
1z
0t
0?!
0|
1,!
0(!
0&!
03
04
07
08
0:
1>
0%
0&
0)
0*
1B!
0z
16!
1A!
1{
0N!
0D
1a
0B!
17!
0:!
0{
0Y!
0V!
1U!
1M
0N
0Q
0a
#90000
b10111 "
b1 #
b1101 !
b11101 !
1w
1o
0i
1s
1\
0_
1T
1U
1;!
12!
18!
14!
1.!
1y
0x
0,!
1*!
1(!
1'!
0$!
1~
1|
1%
1&
1)
1*
1,
00
19
1:
1<
0>
1M!
03!
1B!
1@!
1:!
1?!
0<!
07!
1N!
1K!
1I!
1C!
1@
1B
1C
1D
0I!
1[!
1X!
1W!
0U!
1T!
1R!
1Q!
1G
1H
1K
1L
0M
1O
1P
1S
0B
0[!
1Z!
0X!
0W!
0T!
0R!
0Q!
0G
0H
0K
0L
0O
0P
1R
0S
#95000
b11100 !
b10110 "
b0 #
b100 #
b11110 "
b11110 !
b11100 "
b10110 !
b110 !
0k
1j
0n
0s
1v
0l
1q
0w
0o
0T
0U
1W
0X
1Z
0\
0]
1^
0`
08!
04!
0y
1t
0/!
0?!
1>!
15!
00!
0;!
02!
1$!
0!!
0~
0|
1+!
0*!
0)!
0'!
1&!
1{
1a
13
14
17
18
09
0;
0<
1=
0%
0&
0)
0*
0,
0-
10
1?!
0:!
06!
01!
0B!
0@!
0N!
0K!
0C!
0@
0C
0D
1B!
1@!
0Z!
1U!
1M
0R
#100000
b11000 "
b10 !
b101 #
b1 #
b0 !
b11010 "
1k
0j
0q
0p
1s
0r
0[
1\
0V
0W
0^
1`
0?!
0t
0>!
14!
0.!
1;!
12!
1/!
0+!
0(!
1'!
0$!
1}
0{
0a
1+
00
19
0:
0=
0A!
1<!
1N!
1I!
1F!
1A
1B
1D
0B!
1Z!
0U!
1S!
1Q!
0P!
0F
1G
1I
0M
1R
0F!
0A
0Z!
1U!
1T!
0S!
1R!
1P!
1F
1H
0I
1K
1L
1M
0R
#105000
b1 !
b1001 !
b11001 !
b11110 "
b11101 !
b0 #
b11100 "
0k
0s
1r
1l
1p
1w
1o
1T
1U
1V
1X
1[
0\
0`
18!
1.!
0u
1x
0/!
1>!
02!
1!!
1~
0}
1|
1O!
1+!
1(!
0'!
09
1:
1=
1E
1%
1&
1)
1*
0+
1,
1-
1?!
0<!
1:!
16!
1[!
1X!
1W!
1V!
1N
1O
1P
1S
0@!
0N!
0I!
1F!
1C!
1@
1A
0B
0D
1I!
0[!
0S
1B
1Z!
0X!
0V!
0U!
0T!
1S!
0R!
0P!
0F
0H
1I
0K
0L
0M
0N
0P
1R
#110000
b1100 "
b11111 !
b10111 !
b1000 "
b1 #
1k
1q
0w
0r
0m
0Y
0[
0U
1W
1`
0?!
1<!
09!
06!
10!
1G!
0x
1t
0=!
0.!
12!
1/!
0+!
0(!
0&!
1"!
1}
0|
0%
0&
0)
0*
1+
1.
03
04
07
08
0:
0=
0M!
11!
1?!
0<!
16!
1B!
1K!
1C
0F!
1N!
0Z!
0R
1D
0A
1Z!
1T!
0S!
1R!
1P!
1F
1H
0I
1K
1L
1R
#115000
b1001 "
b1 "
b101 #
b10110 !
b10010 !
b10001 "
0l
0p
1j
1n
0v
1m
1Y
0Z
1]
1^
0V
0X
0?!
1<!
19!
06!
1u
1x
0G!
0>!
0/!
0;!
02!
04!
1.!
1-!
1*!
1)!
1(!
1'!
0O!
1{
1#!
0"!
0!!
0}
0+
0-
0.
1/
1a
0E
19
1:
1;
1<
1?
1@!
0<!
0N!
0K!
0I!
0C!
0{
1[!
0Z!
1X!
1P
0R
1S
0a
0@
0B
0C
0D
0[!
0X!
0W!
1U!
0T!
0R!
0Q!
0G
0H
0K
0L
1M
0O
0P
0S
#120000
b111 #
b10 !
b10011 "
b11 !
1s
1l
0o
1i
1_
0T
1X
1\
1E!
00!
1/!
1=!
08!
14!
0t
0#!
1!!
0-!
0*!
0'!
09
0<
0?
1-
0/
0@!
16!
1A!
0:!
13!
1F!
1A
17!
0B!
1Z!
0U!
1T!
1R!
1Q!
1G
1H
1K
1L
0M
1R
#125000
b1 !
b1001 !
b10010 "
b11010 "
b101 #
b1000 !
0i
0n
1v
0l
0q
1w
1U
0W
0X
1Z
0]
0_
0=!
0.!
03!
0/!
1?!
10!
0E!
0!!
0~
0)!
0(!
1'!
1&!
13
14
17
18
19
0:
0;
0,
0-
1M!
01!
07!
0F!
0A
1B!
1@!
0Z!
1U!
0T!
0R!
0Q!
0G
0H
0K
0L
1M
0R
#130000
b1 #
b1010 !
b11 #
b1011 !
1l
1q
1i
0j
0^
1_
1W
1X
1.!
1%!
1"!
1!!
1~
1}
1|
1%
1&
1)
1*
1+
1,
1-
1.
11
0M!
11!
0B!
0@!
#135000
b1010 "
b11011 !
b1011 "
b11 "
b111 #
b11010 !
1j
0l
1o
1n
0v
0m
0Y
0Z
1]
1T
0X
1^
1E!
1<!
09!
06!
0u
1H!
0x
1=!
18!
04!
1)!
1(!
0'!
0&!
1O!
0%!
0"!
0!!
0~
0,
0-
0.
01
1E
03
04
07
08
09
1:
1;
1B!
1@!
16!
1I!
1F!
1[!
1X!
1W!
1V!
1N
1O
1P
1S
1A
1B
0[!
1Z!
0X!
0V!
0U!
1S!
1Q!
0P!
0F
1G
1I
0M
0N
0P
1R
0S
#140000
b111 "
b11110 !
b11100 !
b10111 "
b11111 "
b11 #
0j
0q
1p
1r
1v
1m
1Y
1Z
1[
1V
0W
0^
0E!
0<!
19!
06!
05!
00!
1u
0H!
1x
0.!
1,!
0(!
1&!
1#!
1~
0}
0O!
0E
0+
1,
1/
13
14
17
18
0:
1>
01!
1:!
1<!
16!
0A!
0I!
0F!
1[!
0Z!
1X!
1P
0R
1S
0A
0B
0B!
0@!
0[!
0X!
0W!
1U!
0S!
0Q!
1P!
1F
0G
0I
1M
0O
0P
0S
#145000
b10 #
b11101 "
b0 #
b1100 !
b11100 "
b11000 "
b1000 "
b0 "
b100 #
0o
0n
0s
0r
0v
0m
0k
0i
1j
1^
0_
0`
0Y
0Z
0[
0\
0]
0T
0<!
09!
06!
15!
1y
0u
1D!
0x
1G!
1t
1>!
13!
0=!
08!
1{
0,!
0)!
1'!
0&!
03
04
07
08
19
0;
0>
1a
0:!
1B!
17!
1u
1<!
16!
0{
0a
07!
0B!
1@!
1{
1a
#150000
b10 "
b110 #
b11100 !
b1010 "
1o
1i
1s
1v
1Z
1\
1_
1T
1H!
0D!
0?!
0G!
0>!
10!
1=!
18!
0y
0u
1&!
0{
0a
13
14
17
18
1A!
1M!
03!
1I!
1B
1B!
0U!
0M
#155000
b10 #
b1000 "
b0 #
0s
0i
0j
0^
0_
0\
0H!
1;!
00!
1G!
1>!
0'!
0&!
03
04
07
08
09
0M!
13!
1N!
1K!
1F!
1A
1C
1D
0N!
1U!
1R!
1Q!
0P!
0F
1G
1H
1M
0D
0U!
1S!
0R!
0H
1I
0M
#160000
b11101 !
b11111 !
b1 #
b1001 "
b1101 "
b11101 "
b1111 !
b10101 "
b10111 "
1n
1s
1r
0v
1m
1k
1l
1q
0o
0T
1W
1X
1`
1Y
0Z
1[
1\
1]
0=!
08!
1.!
1u
0t
03!
1/!
12!
10!
0<!
19!
06!
05!
0G!
0>!
1$!
0#!
1!!
0~
1*!
1)!
1(!
1'!
19
1:
1;
1<
0,
1-
0/
10
1?!
0A!
0B!
1M!
11!
0K!
0C
1B!
0@!
1K!
1N!
0F!
1[!
1X!
1W!
1O
1P
1S
0A
1D
1C
0I!
1F!
1T!
0S!
1R!
1P!
1F
1H
0I
1K
1L
1A
0B
0[!
1Y!
0X!
0W!
1V!
0T!
1S!
0R!
0P!
0F
0H
1I
0K
0L
1N
0O
0P
1Q
0S
#165000
b111 !
b0 #
b10110 "
b10010 "
b10111 !
b10000 "
0n
0s
0r
0k
0w
1o
1T
0U
0`
0[
0\
0]
18!
14!
0.!
0u
02!
00!
0/!
1G!
1D!
09!
1t
1>!
0$!
1"!
1~
1}
0|
1O!
0*!
0)!
0(!
0:
0;
0<
1E
0%
0&
0)
0*
1+
1,
1.
00
1A!
0M!
01!
1<!
0Y!
1W!
1O
0Q
1@!
0K!
0N!
0D
0C
1I!
1X!
1U!
1T!
0S!
1R!
1P!
1F
1H
0I
1K
1L
1M
1P
1B
1Z!
0X!
0V!
0U!
0T!
1S!
0R!
0P!
0F
0H
1I
0K
0L
0M
0N
0P
1R
#170000
b10011 !
b10 #
b0 "
b1 "
b11 !
b11 "
1n
1s
0m
1i
0p
0o
0T
0V
1_
0Y
1\
1]
1=!
08!
1.!
1y
1u
1x
0t
0;!
10!
1/!
0<!
16!
15!
0G!
0D!
0>!
0"!
0}
1)!
1(!
0'!
09
1:
1;
0+
0.
1J!
1E!
1H!
1<!
06!
0@!
1M!
11!
0u
1z
0A!
0I!
0F!
0A
0B
0B!
1K!
1I!
1F!
1[!
0Z!
1X!
1V!
1U!
0S!
0Q!
1P!
1F
0G
0I
1M
1N
1P
0R
1S
1A
1B
1C
0[!
0X!
0V!
0U!
1S!
1Q!
0P!
0F
1G
1I
0M
0N
0P
0S
#175000
b1 !
b1011 "
b1001 !
b11 #
b1101 !
b1 #
b1010 "
b11101 !
b1000 "
1k
0i
0n
0s
1v
0q
1p
1w
1o
1T
1U
1V
0W
1Z
0\
0]
0_
1`
0E!
18!
0y
0H!
0x
0J!
1t
0?!
1G!
1>!
1;!
12!
1|
0)!
0(!
0:
0;
1%
1&
1)
1*
1?!
0<!
1:!
16!
1@!
0z
1N!
0I!
0F!
0A
0B
1D
1F!
1C!
0N!
1X!
1V!
1U!
0S!
0Q!
1P!
1F
0G
0I
1M
1N
1P
0D
1@
1A
1[!
1S!
1Q!
0P!
0F
1G
1I
1S
#180000
b101 #
b11100 !
b11110 !
b10110 !
b100 #
b10010 !
b1001 "
b10 !
1n
0l
1q
0p
0w
0o
0k
1j
1^
0`
0T
0U
0V
1W
0X
1]
0;!
02!
00!
0/!
08!
0G!
0>!
0O!
1#!
0!!
0|
1)!
1;
0%
0&
0)
0*
0-
1/
0E
0?!
0:!
01!
1<!
06!
0K!
0F!
0C!
0[!
0X!
0W!
0V!
0N
0O
0P
0S
0@
0A
0C
0S!
0Q!
1P!
1F
0G
0I
#185000
b11001 "
b10001 "
b110 #
b10011 "
b10 #
b1010 !
b11 #
b11010 !
1w
1o
1k
1i
0j
1s
0v
1m
1Y
0Z
1\
0^
1_
1`
1T
1U
0<!
19!
16!
1u
0t
18!
04!
1(!
0#!
0~
1}
1|
1%
1&
1)
1*
1+
0,
0/
1:
1B!
0@!
06!
1:!
#190000
b10111 "
b11011 !
b111 "
b1 #
b101 #
b10011 !
0i
1j
1l
0w
1r
0m
0Y
1[
0U
1X
1^
0_
1?!
1<!
09!
16!
05!
10!
0u
0=!
13!
1/!
0.!
1*!
1'!
1!!
1~
0}
0|
0%
0&
0)
0*
0+
1,
1-
19
1<
0M!
11!
0B!
1@!
0:!
0<!
06!
1A!
1{
1a
0@!
#195000
b10111 !
b111 !
b110 !
0l
1p
0o
0T
1V
0X
1=!
08!
1.!
1x
03!
0/!
1$!
0!!
0~
0,
0-
10
0A!
1B!
1@!
0B!
#200000
b10111 "
b111 #
b11 #
1i
0j
1m
1Y
0^
1_
0?!
1<!
19!
16!
00!
1u
0{
0a
1M!
01!
1A!
1B!
0@!
1@!
#205000
b100 !
b11111 "
b10 #
b1100 !
b11100 !
b11101 !
b0 #
b100 #
0k
0i
1j
1v
1l
0q
1w
1o
1T
1U
0W
1X
1Z
1^
0_
0`
18!
14!
1y
13!
1/!
1?!
0$!
1!!
1~
1|
1,!
0*!
0(!
0'!
1&!
1{
1a
13
14
17
18
09
0:
0<
1>
1%
1&
1)
1*
1,
1-
00
0@!
0M!
11!
06!
0A!
1:!
0B!
#210000
b11110 "
b11100 "
b11111 !
b101 #
b10111 !
b111 !
b110 !
b111 #
1k
1i
0l
1q
0w
0o
0n
0s
0\
0]
0T
0U
1W
0X
1_
1`
1L!
1>!
15!
1t
03!
0/!
0y
1E!
08!
04!
1H!
0x
0,!
1+!
0)!
1(!
1$!
0!!
0~
0|
0{
0a
0%
0&
0)
0*
0,
0-
10
1:
0;
1=
0>
1@!
1A!
0:!
1M!
01!
0<!
1I!
1F!
1N!
1D
1A
1B
1B!
1Z!
0U!
1S!
1Q!
0P!
0F
1G
1I
0M
1R
#215000
b10100 "
b1110 !
b11110 !
b11111 !
b101 #
0i
1l
1w
1o
0v
0Z
1T
1U
1X
0_
0H!
0?!
0E!
18!
14!
0.!
0u
0L!
1-!
0+!
1*!
1)!
0(!
0&!
1!!
1|
1%
1&
1)
1*
1-
03
04
07
08
0:
1;
1<
0=
1?
1:!
0M!
16!
0A!
0N!
1{
0F!
0I!
0B
0A
1a
0D
0B!
0Z!
1U!
0S!
0Q!
1P!
1F
0G
0I
1M
0R
#220000
b100 "
b101 "
b100 #
b1101 "
b1111 !
b1110 !
b110 #
0l
0o
0k
1i
1n
1v
0m
0Y
1Z
1]
1_
0`
0T
0X
1<!
09!
06!
05!
1H!
1x
0>!
1J!
0=!
08!
04!
1.!
0-!
0*!
1(!
1&!
0{
1%!
0$!
1"!
1.
00
11
0a
13
14
17
18
1:
0<
0?
1M!
1B!
0@!
0:!
0<!
1K!
1I!
1B
1C
1@!
1Y!
1V!
0U!
1T!
1R!
1Q!
1G
1H
1K
1L
0M
1N
1Q
