simulation/qsim/Ula_pjct.msim.vcd
$comment
	File created using the following command:
		vcd file Ula_pjct.msim.vcd -direction
$end
$date
	Wed Oct 22 15:20:59 2025
$end
$version
	ModelSim Version 2020.1
$end
$timescale
	1ps
$end

$scope module Ula_pjct_vlg_vec_tst $end
$var reg 5 ! A [4:0] $end
$var reg 5 " B [4:0] $end
$var reg 1 # SUB $end
$var wire 1 $ S [4] $end
$var wire 1 % S [3] $end
$var wire 1 & S [2] $end
$var wire 1 ' S [1] $end
$var wire 1 ( S [0] $end

$scope module i1 $end
$var wire 1 ) gnd $end
$var wire 1 * vcc $end
$var wire 1 + unknown $end
$var tri1 1 , devclrn $end
$var tri1 1 - devpor $end
$var tri1 1 . devoe $end
$var wire 1 / S[4]~output_o $end
$var wire 1 0 S[3]~output_o $end
$var wire 1 1 S[2]~output_o $end
$var wire 1 2 S[1]~output_o $end
$var wire 1 3 S[0]~output_o $end
$var wire 1 4 A[4]~input_o $end
$var wire 1 5 B[4]~input_o $end
$var wire 1 6 SUB~input_o $end
$var wire 1 7 inst18|inst~0_combout $end
$var wire 1 8 B[3]~input_o $end
$var wire 1 9 A[3]~input_o $end
$var wire 1 : inst3|inst~0_combout $end
$var wire 1 ; A[2]~input_o $end
$var wire 1 < B[2]~input_o $end
$var wire 1 = inst2|inst~0_combout $end
$var wire 1 > A[1]~input_o $end
$var wire 1 ? B[1]~input_o $end
$var wire 1 @ inst1|inst~0_combout $end
$var wire 1 A B[0]~input_o $end
$var wire 1 B A[0]~input_o $end
$var wire 1 C inst01928374|inst3~combout $end
$upscope $end
$upscope $end
$enddefinitions $end
#0
$dumpvars
b101 !
b10100 "
1#
1(
1'
1&
1%
0$
0)
1*
x+
1,
1-
1.
0/
10
11
12
13
04
15
16
07
08
09
1:
1;
1<
1=
0>
0?
1@
0A
1B
1C
$end
#5000
b100 !
b100 "
b1100 "
18
05
0B
0:
17
0C
03
1/
00
0%
1$
0(
#10000
b110 !
b1000 "
b1010 "
0#
b111 !
b11010 "
b10010 "
1?
0<
08
15
1B
1>
06
0@
1C
13
02
0'
1(
#15000
b10111 !
b10011 !
b10011 "
b10111 "
b10101 "
1#
b101 "
b1101 "
1A
0?
1<
18
05
0;
14
16
0C
0=
07
0/
01
03
0(
0&
0$
#20000
b11011 !
b11001 !
b11000 !
b1001 "
0<
0B
0>
19
1=
1C
1@
1:
10
12
13
11
1&
1(
1'
1%
#25000
b1000 "
b1010 "
0#
b10 "
b10000 !
b10010 !
b10011 !
06
1B
1>
09
0A
1?
08
0@
0=
0:
17
1/
00
01
02
0'
0&
0%
1$
#30000
b10111 !
b110 "
b100 "
b10101 !
0?
1<
0>
1;
#35000
b101 !
b10100 "
1#
b11100 "
b1101 !
b1100 !
b1110 !
18
15
0B
1>
19
04
16
1:
07
0C
1=
11
03
0/
10
1%
0$
0(
1&
#40000
b11101 "
b1010 !
b1101 "
b1011 !
1B
0;
1A
05
0=
17
1/
01
0&
1$
#45000
0#
b1001 !
b1100 "
b11100 "
06
0A
15
0>
1=
0:
1C
13
00
11
1&
0%
1(
#50000
b11000 "
b11010 "
b10010 "
b1 !
b0 !
b10 !
b10 "
0B
1>
09
1?
0<
08
05
0C
0=
07
0/
01
03
0(
0&
0$
#55000
b0 "
b0 !
b10000 "
0>
0?
15
17
1/
1$
#60000
1#
b10001 "
b11001 "
b1000 !
b11011 "
b1010 !
16
1>
19
1A
1?
18
1@
1=
1:
07
1C
13
0/
10
11
12
1'
1&
1%
0$
1(
#65000
b11010 !
b11110 !
b11010 "
b10110 !
b10100 !
0A
0>
1;
09
14
0C
0@
0=
0:
17
1/
00
01
02
03
0(
0'
0&
0%
1$
#70000
b10010 "
b10000 "
b10000 !
b11000 !
0;
19
0?
08
1=
1@
12
11
1&
1'
#75000
b10100 "
b100 "
0#
b1000 !
b1010 !
b110 "
b10 !
06
1>
09
04
1?
1<
05
0@
07
0/
02
0'
0$
#80000
b11 !
b111 "
b111 !
b10111 "
b10111 !
b10101 !
b10101 "
1A
0?
15
1B
0>
1;
14
0=
01
0&
#85000
1#
b10100 "
b10001 !
b100 "
b1 !
16
0;
04
0A
05
1@
1:
17
1C
13
1/
10
12
1'
1%
1$
1(
#90000
b1100 "
b1001 !
b1000 !
b1010 !
b1110 "
0#
b1111 "
0B
1>
19
1A
1?
18
06
0@
0:
1=
07
0/
11
00
02
0'
0%
1&
0$
#95000
b1110 !
b11111 "
b11110 !
b10111 "
b10110 !
b10101 "
1#
b10100 "
0A
0?
08
15
1;
09
14
16
0C
1:
17
1/
10
03
0(
1%
1$
#100000
b10100 !
b100 !
b10110 "
0#
1?
0>
04
06
1@
0=
0:
00
01
12
1'
0&
0%
#105000
b10010 "
b101 !
b1 !
b10 "
b0 "
1#
1B
0;
0?
0<
05
16
1C
1=
1:
10
11
13
1(
1&
1%
#110000
b11 !
b10011 !
b10010 !
b10110 !
b10000 "
0#
15
0B
1>
1;
14
06
07
0C
0:
00
03
0/
0$
0(
0%
#115000
b11000 "
b11100 "
b10111 !
b10011 !
b1100 "
1B
0;
1<
18
05
1C
1:
17
1/
10
13
1(
1%
1$
#120000
b11011 !
b1101 "
b1111 "
1#
b11010 !
b11111 "
1A
1?
15
0B
19
16
0=
01
0&
#125000
b11000 !
b1000 !
b1100 !
b11101 "
b1101 !
0?
1B
0>
1;
04
0C
1=
07
0/
11
03
0(
1&
0$
#130000
b11001 "
b101 !
0#
b1001 "
b100 !
0B
09
0<
05
06
1C
0@
02
13
1(
0'
#135000
b1 "
b110 !
b10 !
b11 "
b111 "
b10111 "
1>
0;
1?
1<
08
15
0:
17
1/
00
0%
1$
#140000
b10110 "
b1010 !
1#
b1011 !
b11110 "
b11100 "
1B
19
0A
0?
18
16
1:
0=
07
0/
01
10
1%
0&
0$
#145000
b11000 "
b1000 "
b1001 "
b11 !
b10 !
b1 "
0B
09
1A
0<
08
05
1=
17
1/
11
1&
1$
#150000
b10010 !
b10110 !
b11 "
b111 "
b10111 "
b11110 !
1?
1<
15
1;
19
14
1@
0:
00
12
1'
0%
#155000
b10110 "
b1110 !
b1010 !
b10 !
0;
09
04
0A
0=
1:
07
0C
03
0/
10
01
0&
1%
0$
0(
#160000
b0 !
0#
b10010 "
b10 "
b10000 !
b10100 !
b11100 !
06
0<
05
0>
1;
19
14
1=
17
1/
11
1&
1$
#165000
b11101 !
1#
1B
16
1C
0@
0=
0:
07
0/
00
01
02
13
1(
0'
0&
0%
0$
#170000
b0 "
b100 "
b10100 "
b1101 !
b101 !
b100 !
0#
0B
09
04
0?
1<
15
06
0C
17
1/
03
0(
1$
#175000
b11100 "
b110 !
b11110 "
b11010 "
b10110 !
1>
14
1?
0<
18
07
1=
1:
10
11
0/
0$
1&
1%
#180000
b11011 "
b10010 !
b1011 "
b11010 !
b11011 !
b11 "
b1011 !
1B
0;
19
04
1A
08
05
0=
01
0&
#185000
1#
b1001 !
b1 "
b1000 !
16
0?
0B
0>
1@
1=
0:
17
1C
13
1/
00
11
12
1'
1&
0%
1$
1(
#190000
b0 "
b11000 !
b11001 !
1B
14
0A
07
0/
0$
#195000
b100 "
b10100 "
0#
b10101 "
b11000 !
06
0B
1A
1<
15
0@
1:
10
02
0'
1%
#200000
b11100 !
b101 "
1#
b100 "
b11101 !
0A
05
1B
1;
16
1@
0:
00
12
1'
0%
#205000
b1100 "
b1110 "
b1010 "
b11010 "
b11100 !
0B
1?
0<
18
15
0C
0@
0=
1:
17
1/
10
01
02
03
0(
0'
0&
1%
1$
#210000
b11110 !
b1110 !
b1010 !
b11011 "
b11001 "
b11101 "
b1101 "
b1011 !
1A
0?
1<
05
1B
1>
0;
04
#215000
b11 !
0#
b101 "
b10011 !
b10111 !
b111 "
b11 "
06
1?
0<
08
1;
09
14
1=
0:
00
11
1&
0%
#220000
b10 "
b1010 "
b111 !
04
0A
18
07
1C
1:
10
13
0/
0$
1(
1%
#225000
b11010 "
b1111 !
1#
b1011 !
b11000 "
b11100 "
b11011 !
0;
19
14
0?
1<
15
16
0=
17
1/
01
0&
1$
#230000
b11001 !
b11000 !
b11101 "
b1101 "
0#
b11100 !
b1111 "
1A
1?
05
0B
0>
1;
06
1@
0:
00
12
1'
0%
#235000
b1011 "
b1100 !
b1110 !
b1111 !
b1010 "
b11010 "
1#
b11000 "
1B
1>
04
0A
0?
0<
15
16
0@
07
1:
10
0/
02
0'
0$
1%
#240000
b111 !
b11 !
b11100 "
b10011 !
0#
1<
0;
09
14
06
1=
1@
12
11
1&
1'
#245000
b10001 !
b11101 "
b11001 !
1A
0>
19
0C
0@
0:
00
02
03
0(
0'
0%
#250000
b10101 "
b101 "
b111 "
b1001 !
b1011 !
b110 "
b11 !
1>
09
04
0A
1?
08
05
1C
13
1(
#255000
1#
b1110 "
b11110 "
b11100 "
b1011 !
16
19
0?
18
15
0=
1:
10
01
0&
1%
#260000
b1010 !
b11010 !
0#
b10100 "
b10010 !
06
08
0B
09
14
1@
1=
0:
0C
03
00
11
12
1'
1&
0%
0(
#265000
b10000 !
b10101 "
b101 "
b0 !
1#
b1101 "
b1000 !
1A
18
05
0>
19
04
16
1C
1:
17
0=
01
1/
10
13
1(
1%
1$
0&
#270000
b1100 !
b1111 "
b1110 !
b1110 "
b11110 !
0#
b110 "
0A
1?
08
1>
1;
14
06
0C
0@
02
03
0(
0'
#275000
b10110 "
b10110 !
1#
09
15
16
1@
1=
11
12
1'
1&
#280000
b10111 !
b10011 !
b10100 "
b10001 !
b11100 "
b11001 !
0#
0?
18
1B
0>
0;
19
06
0@
0:
1C
07
0/
13
00
02
0'
0%
1(
0$
#285000
b11000 "
b11001 "
b1001 "
b11011 !
1#
1>
1A
0<
05
16
0C
1:
10
03
0(
1%
#290000
b11010 !
b1 "
b101 "
b100 "
0#
0A
1<
08
0B
06
1@
17
1/
12
1'
1$
#295000
b1010 !
b1110 !
b1111 !
1B
1;
04
1C
0=
07
0/
01
13
1(
0&
0$
#300000
b10100 "
b1101 !
b11100 "
b11000 "
1#
b11101 !
b11001 !
b11000 !
0B
0>
0;
14
0<
18
15
16
0C
1=
17
1/
11
03
0(
1&
1$
#305000
b10000 !
b1000 "
b10010 !
b0 "
08
05
1>
09
07
0@
02
0/
0$
0'
#310000
b1 "
b10001 "
b10000 !
0>
1A
15
1@
1C
17
1/
13
12
1'
1(
1$
#315000
0#
b10100 !
b11001 "
b11000 "
b10110 !
06
0A
18
1>
1;
07
0C
03
0/
0$
0(
#320000
b11100 "
b110 !
b111 !
b1100 "
b100 "
b101 "
b101 !
1B
0>
04
1A
1<
08
05
0@
0=
0:
00
01
02
0'
0&
0%
#325000
b111 "
b1 !
b11 "
b10001 !
b1011 "
b10011 !
1>
0;
14
1?
0<
18
17
1:
10
1/
1$
1%
#330000
b1010 "
b1000 "
b10111 !
1;
0A
0?
1=
1C
1@
12
13
11
1&
1(
1'
#335000
1#
b10110 !
b0 "
b10 "
b10010 !
16
1?
08
0B
0;
07
0C
03
0/
0$
0(
#340000
b10 !
b11 "
b1011 "
1A
18
04
1C
0:
17
1/
00
13
1(
0%
1$
#345000
b1010 !
b11011 "
b1000 !
0#
b10011 "
08
15
0>
19
06
1:
0=
01
10
1%
0&
#350000
b10111 "
b1100 !
b100 !
b111 "
b110 !
1#
b1111 "
1>
1;
09
1<
18
05
16
1=
0:
00
11
1&
0%
#355000
b1101 "
b10 !
b1010 !
b1000 !
b101 "
0>
0;
19
0?
08
0=
01
0&
#360000
b1001 !
b11001 !
b1 "
0#
b11 "
b11101 !
b11111 !
b1011 "
1?
0<
18
1B
1>
1;
14
06
0@
1=
0C
03
11
02
0'
1&
0(
#365000
b1010 "
b10111 !
b111 !
b1110 "
1#
b11 !
b110 "
0;
09
04
0A
1<
08
16
0=
1:
1C
1@
12
13
10
01
0&
1%
1(
1'
#370000
b10110 "
b10 !
b0 !
b1000 !
b11000 !
b10010 "
b11100 !
b11010 "
0B
0>
1;
19
14
0<
18
15
0C
0@
02
03
0(
0'
#375000
b11011 "
b1011 "
b11101 !
b11111 !
b10111 !
b111 !
b1111 "
b11 !
b111 "
1B
1>
0;
09
04
1A
1<
08
05
1@
12
1'
#380000
0#
b10111 "
b10011 !
b10011 "
b11011 "
06
14
0<
18
15
0@
07
0/
02
0'
0$
#385000
b10010 !
b10000 !
b11000 !
1#
b1011 "
b11 "
16
08
05
0B
0>
19
1=
0:
1C
13
00
11
1&
0%
1(
#390000
b1 "
b11100 !
b1100 !
b100 !
1;
09
04
0?
0=
1:
17
1@
12
1/
10
01
0&
1%
1$
1'
#395000
b0 "
b100 "
b101 !
b1100 "
b1110 "
b10101 !
1B
14
0A
1?
1<
18
07
0@
1=
0:
00
11
02
0/
0$
0'
1&
0%
#400000
0#
b11110 "
b10001 !
b11001 !
b11111 "
b11011 "
b11001 "
06
0;
19
1A
0?
0<
15
0=
0C
03
01
0&
0(
#405000
b11000 !
b1000 !
1#
b1001 "
b1100 !
b1000 "
b1010 "
16
0A
1?
05
0B
1;
04
1:
17
1/
10
1%
1$
#410000
b1110 !
b10 "
b110 "
b1111 !
b10110 "
1<
08
15
1B
1>
1=
0:
07
1C
1@
12
13
0/
00
11
1&
0%
0$
1(
1'
#415000
b1011 !
b10111 "
b10101 "
b1001 !
b1000 !
b101 "
1A
0?
05
0B
0>
0;
17
0=
01
1/
1$
0&
#420000
0#
b1 "
b0 "
b10 "
b1010 !
b10010 "
06
1>
0A
1?
0<
15
0@
1:
0C
03
10
02
0'
1%
0(
#425000
b10 !
b110 !
b111 !
b10 "
05
1B
1;
09
07
1C
1=
0:
00
11
13
0/
0$
1(
1&
0%
#430000
b10111 !
b0 "
0?
14
1@
17
1/
12
1'
1$
#435000
1#
b100 "
b10101 !
16
0>
1<
1:
07
0/
10
1%
0$
#440000
b10001 !
b10000 !
b10100 "
b0 !
b10110 "
1?
15
0B
0;
04
0@
0C
0=
01
03
02
0'
0(
0&
#445000
b10111 "
b1000 !
0#
b1001 !
b111 "
1B
19
1A
05
06
1@
1=
11
12
1'
1&
#450000
b1111 "
b1011 !
b1111 !
b1101 "
b111 !
1#
b11101 "
1>
1;
09
0?
18
15
16
0@
0:
00
02
0'
0%
#455000
b11001 "
b11000 "
b110 !
b10000 "
b100 !
b10010 "
b10 "
0B
0>
0A
1?
0<
08
05
0=
1:
17
1/
10
01
0&
1%
1$
#460000
b10100 !
b110 "
b10101 !
b10110 "
1<
15
1B
14
1=
1C
13
11
1&
1(
#465000
b11110 "
b101 !
b11010 "
b1010 "
04
0<
18
05
0=
0:
00
01
0&
0%
#470000
b1 !
b10 "
b110 "
b10110 "
1<
08
15
0;
1:
07
0/
10
1%
0$
#475000
b1001 !
b1000 !
b11110 "
b11010 "
0<
18
0B
19
1=
0C
03
11
1&
0(
#480000
b11011 "
b1010 !
b11010 !
b11110 !
b1011 "
b11 "
1>
1;
14
1A
08
05
1@
0=
1C
0:
00
13
01
12
1'
0&
1(
0%
#485000
b1 "
b11100 !
0>
0?
#490000
b10100 !
b101 "
b100 "
b10000 !
b1100 "
0A
1<
18
0;
09
0C
03
0(
#495000
0#
b10001 !
b10011 !
b11011 !
b1000 "
b11111 !
b0 "
06
0<
08
1B
1>
1;
19
1=
1:
17
1C
13
1/
10
11
1&
1%
1$
1(
#500000
b10000 "
b10111 !
b10100 "
09
1<
15
0:
0=
07
0/
01
00
0%
0&
0$
#505000
b111 !
b110 !
b100 !
b100 "
05
0B
0>
04
0C
0@
02
03
0(
0'
#510000
b0 !
b1000 !
b0 "
b11000 !
b11001 !
b11011 !
b10000 "
0<
15
1B
1>
0;
19
14
1C
1@
1:
10
12
13
1(
1'
1%
#515000
b10010 "
b10011 "
b11111 !
b11110 !
b11100 !
0B
0>
1;
1A
1?
1=
11
1&
#520000
b1100 !
b11 "
b10 "
b1101 !
0A
05
1B
04
#525000
b0 "
b1001 !
b1011 !
b1010 !
0B
1>
0;
0?
0C
0=
01
03
0(
0&
#530000
1#
b1000 "
b10 !
b1100 "
b10010 !
b10000 !
b10001 !
16
1B
0>
09
14
1<
18
0:
1C
13
00
0%
1(
#535000
b1101 "
b101 "
b1 "
b10011 !
1>
1A
0<
08
0@
0C
1=
1:
10
11
03
02
0'
0(
1&
1%
#540000
b10001 "
0#
b11011 !
b1011 !
b10000 "
b10100 "
b1001 !
06
0>
19
04
0A
1<
15
17
1C
13
1/
1$
1(
#545000
b1000 !
b100 "
1#
b0 !
b10000 !
b10010 !
05
0B
1>
09
14
16
07
0C
0=
01
03
0/
0$
0(
0&
#550000
b110 "
b10 "
b10010 "
0#
b11010 !
b1010 !
06
19
04
1?
0<
15
17
1/
1$
#555000
b11010 "
b11110 "
b1110 "
b10 !
09
1<
18
05
1=
07
0/
11
1&
0$
#560000
b110 !
b1111 "
1#
b1011 "
1A
0<
1;
16
1C
0=
1@
0:
17
1/
00
12
01
13
1(
0&
1'
0%
1$
#565000
b111 !
b10111 !
b11 "
b10011 !
b10 "
0#
b110 "
0A
1<
08
1B
0;
14
06
1=
0@
02
11
1&
0'
#570000
b11011 !
b11010 !
b1010 !
b1110 !
b111 "
1A
0B
1;
19
04
0=
1:
07
0/
10
01
0&
1%
0$
#575000
b1100 !
b10111 "
1#
b1101 !
b11101 !
b10110 "
0A
15
1B
0>
14
16
17
1=
0:
00
11
1/
1$
1&
0%
#580000
b11110 "
b11010 "
b10101 !
b10001 !
b1010 "
0#
b1 !
b1011 "
0;
09
04
1A
0<
18
05
06
0=
1:
07
0C
1@
12
03
0/
10
01
0&
1%
0$
0(
1'
#585000
b11 !
b10 !
b1010 !
1#
0B
1>
19
16
1C
1=
17
1/
11
13
1(
1&
1$
#590000
b1001 "
b1 "
b101 "
b1110 !
b10101 "
b1100 !
b1101 !
1B
0>
1;
0?
1<
08
15
0C
0:
07
0/
00
03
0(
0%
0$
#595000
b10100 "
b101 !
0#
b10000 "
b111 !
b110 !
0B
1>
09
0A
0<
06
17
1/
1$
#600000
b10010 "
b11010 "
b1010 "
b1110 !
b1100 !
b1101 !
1B
0>
19
1?
18
05
1C
07
0/
13
1(
0$
#605000
b1011 "
1#
b1111 !
b1110 !
16
0B
1>
1A
0=
1:
17
1/
10
01
0&
1%
1$
#610000
b11110 !
b11 "
b10 "
b11111 !
0A
08
1B
14
0:
07
0/
00
0%
0$
#615000
b11011 !
b10010 "
b10011 !
b11 !
b10011 "
b10 !
1A
15
0B
0;
09
04
1=
1:
10
11
1&
1%
#620000
b10111 "
b10101 "
b0 !
b11101 "
b100 !
b1101 "
b1100 "
0>
1;
0A
0?
1<
18
05
0C
0:
17
1/
00
03
0(
0%
1$
#625000
0#
b1100 !
b1000 "
b1010 "
b10 "
b11 "
06
1A
1?
0<
08
19
1:
07
1C
13
0/
10
1%
0$
1(
#630000
b1101 !
b1111 !
1#
b111 !
b1011 "
16
18
1B
1>
09
0=
0:
17
0C
03
1/
00
01
0&
0%
1$
0(
#635000
b10111 !
b10101 !
0#
b11101 !
0>
19
14
06
1=
11
1&
#640000
b11001 !
b11011 "
b11001 "
b11000 !
1#
b10000 !
0?
15
0B
0;
09
16
1C
13
1(
#645000
b10001 "
b0 !
b1 "
b1 !
b1001 !
1B
19
04
08
05
0C
03
0(
#650000
b101 "
b1101 !
b111 "
b1111 "
b1100 !
b100 !
0B
1;
09
1?
1<
18
1C
0@
02
13
1(
0'
#655000
b1110 "
0#
b11110 "
b11010 "
b0 !
b10010 "
b1000 !
06
0;
19
0A
0<
08
15
1@
0=
1:
0C
03
10
01
12
1'
0&
1%
0(
#660000
b10000 "
b1001 !
b10001 "
1#
b1 "
b1101 !
b101 !
1B
1;
09
1A
0?
05
16
#665000
b111 !
b10111 !
b1001 "
b1011 "
b10110 !
b1010 "
b11010 "
b10010 !
b11010 !
0A
1?
18
15
0B
1>
0;
19
14
1=
11
1&
#670000
b11110 "
0#
b1010 !
b11111 "
b1110 !
b110 !
06
1;
09
04
1A
1<
0@
0=
1C
13
01
02
0'
0&
1(
#675000
b11101 "
1#
b10 !
b1010 !
16
0;
19
0?
07
0/
0$
#680000
b1000 !
b1101 "
b1001 "
b11000 !
b1000 "
b1010 "
b10000 !
0A
1?
0<
05
0>
09
14
0C
1=
0:
00
11
03
0(
1&
0%
#685000
0#
b10100 !
b1110 "
b11100 !
06
1<
1;
19
1@
0=
17
1/
01
12
1'
0&
1$
#690000
b1111 "
b1101 "
b1001 "
b10100 !
09
1A
0?
0<
1:
1C
0@
1=
11
02
13
10
1%
1(
0'
1&
#695000
b10101 !
b11001 "
b101 !
b1 !
b11000 "
b11010 "
0A
1?
15
1B
0;
04
1@
0=
01
12
1'
0&
#700000
b11 !
b11110 "
b1011 !
b1010 !
b1110 "
1<
05
0B
1>
19
1=
07
0C
0@
0:
00
02
03
0/
11
1&
0$
0(
0'
0%
#705000
b110 "
b11010 !
b11110 !
b111 "
b10110 !
b10111 "
1;
09
14
1A
08
15
0=
1C
13
01
0&
1(
#710000
1#
b10011 "
b10010 "
b11110 !
16
19
0A
0<
1@
17
0C
03
1/
12
1'
1$
0(
#715000
b10000 "
b11100 !
b11000 "
b1100 !
b1000 !
b1000 "
0#
b1001 "
0>
0;
04
1A
0?
18
05
06
0@
07
1C
13
0/
02
0'
0$
1(
#720000
b1001 !
b1011 "
b1011 !
b11011 !
b11111 !
b11011 "
b11010 "
0A
1?
15
1B
1>
1;
14
1=
11
1&
#725000
b10111 !
b10011 !
b11011 "
1A
0;
09
0C
0=
1:
10
01
03
0(
0&
1%
#730000
b11111 "
b10111 "
b10001 !
b1 !
0>
04
1<
08
1@
17
1=
0:
00
11
1/
12
1'
1$
1&
0%
#735000
b0 !
b1000 !
b1100 !
b10110 "
b11110 "
b1110 !
0A
18
0B
1>
1;
19
0@
0=
01
02
0'
0&
#740000
1#
b11010 "
b1010 !
16
0;
0<
1@
1=
1:
07
0/
10
11
12
1'
1&
1%
0$
#745000
b11000 "
b11010 !
b11011 !
b11100 "
1B
14
0?
1<
1C
17
0@
0=
01
02
1/
13
1(
1$
0'
0&
#750000
b1100 "
b10011 !
b100 "
b10001 !
0#
b10101 !
b110 "
b101 !
b10 "
0>
1;
09
04
1?
0<
08
05
06
1@
1=
0:
07
0/
00
11
12
1'
1&
0%
0$
#755000
b11 "
b10011 "
b1101 !
b1111 !
b1011 !
b10001 "
b10101 "
1>
0;
19
1A
0?
1<
15
1:
0C
17
1/
03
10
1%
0(
1$
#760000
b1010 !
b11101 "
b11100 "
b1100 "
b1110 !
0A
18
05
0B
1;
0:
07
0=
01
0/
00
0%
0$
0&
#765000
1#
b110 !
b1110 "
b1010 "
b1011 "
b11011 "
16
1A
1?
0<
15
09
1C
13
1(
#770000
b10 !
b11010 "
0A
0;
0C
1=
11
03
0(
1&
#775000
b10010 !
b10000 !
b10001 !
b10010 "
0#
b11001 !
b10000 "
b0 "
0?
08
05
1B
0>
19
14
06
0@
1:
17
1C
0=
01
13
1/
10
02
0'
1%
1$
1(
0&
#780000
b100 "
b11101 !
b101 "
b11100 !
1#
b10100 !
b111 "
b10111 "
0B
1;
09
1A
1?
1<
15
16
1=
11
1&
#785000
b11111 "
b11100 !
b1111 "
19
18
05
07
0/
0$
#790000
b11110 !
b1011 "
b11010 !
b11011 !
0#
b1001 "
b1 "
0?
0<
08
1B
1>
0;
06
1@
0=
0C
17
1/
03
01
12
1'
0&
0(
1$
#795000
b10011 !
b10001 "
b10001 !
b10101 "
b10101 !
b10100 !
1#
b10111 "
1?
1<
15
0B
0>
1;
09
16
0@
1=
1C
13
11
02
0'
1&
1(
#800000
b100 !
b10110 "
b1100 !
b1110 !
b10010 "
b1010 !
b1011 !
0A
0<
1B
1>
0;
19
04
1@
0:
07
0/
00
12
1'
0%
0$
#805000
b11010 "
b1010 "
0#
b1000 "
b11011 !
b11001 !
06
0>
14
0?
18
05
0@
0=
17
1/
01
02
0'
0&
1$
#810000
b10001 !
b10000 !
1#
b1010 "
b0 !
b10 !
16
1?
0B
1>
09
04
1@
1=
0C
03
11
12
1'
1&
0(
#815000
b1011 "
b1111 "
b0 !
0>
1A
1<
0@
1C
0=
01
13
02
0'
1(
0&
#820000
b111 "
b10111 "
b1 !
b10001 !
b10110 "
b10011 !
1B
1>
14
0A
08
15
1@
1:
10
12
1'
1%
#825000
b10111 !
0#
b110 "
b111 "
06
1A
05
1;
0@
0:
0C
03
00
02
0'
0%
0(
#830000
b11111 !
b101 "
b1111 !
b1011 !
1#
b100 "
0A
0?
0;
19
04
16
1C
13
1(
#835000
b0 "
b1010 !
b1000 !
b10000 "
b0 !
b10010 "
b100 !
0B
0>
1;
09
1?
0<
15
0C
1:
07
0/
10
03
0(
1%
0$
#840000
0#
b10110 "
b101 !
b110 "
b100 "
b1 !
06
1B
0;
0?
1<
05
1=
0:
1C
13
00
11
1&
0%
1(
#845000
b1100 "
b10001 !
b10011 !
b11011 !
b11100 "
b11110 "
b11111 !
1>
1;
19
14
1?
18
15
0=
01
0&
#850000
b11111 "
b10111 "
b11101 !
b10101 "
0>
1A
0?
08
0C
1:
10
03
0(
1%
#855000
b1101 !
b101 !
b10100 "
b11100 "
b111 !
b11110 "
0A
1?
18
1>
09
04
1C
17
1/
13
1(
1$
#860000
1#
b11010 "
b110 !
b10110 !
b10010 "
b10100 !
b10000 "
16
0B
0>
14
0?
0<
08
1@
0C
03
12
1'
0(
#865000
b10000 !
0#
0;
06
0@
0:
07
0/
00
02
0'
0%
0$
#870000
b10001 "
b0 !
b11001 "
b11011 "
b100 !
1#
1;
04
1A
1?
18
16
1C
13
1(
#875000
b1011 "
b1100 !
b1111 "
b1110 !
b11110 !
b111 "
1>
19
14
1<
08
05
1@
1=
11
12
1'
1&
#880000
b101 "
b11010 !
0#
0;
0?
06
1:
17
1/
10
1%
1$
#885000
b100 "
b10010 !
b10110 !
1;
09
0A
0=
0:
0C
03
00
01
0&
0%
0(
#890000
b0 "
1#
b1 "
b10010 !
16
0;
1A
0<
0@
1=
1:
07
1C
13
0/
10
11
02
0'
1&
1%
0$
1(
#895000
b10011 !
b10001 "
b10001 !
b10011 "
b11001 !
b10111 "
0#
b11101 !
1?
1<
15
1B
0>
1;
19
06
1@
0=
0C
03
01
12
1'
0&
0(
#900000
b1101 !
b11111 "
1#
18
04
16
0@
1=
11
02
0'
1&
#905000
b1100 !
b11101 "
b11001 "
b1000 !
b11000 !
b10001 "
0#
0?
0<
08
0B
0;
14
06
0=
1C
13
01
0&
1(
#910000
b11001 !
b10011 "
b10111 "
b11101 !
b1101 !
1#
1?
1<
1B
1;
04
16
1=
0C
0:
00
03
11
1&
0(
0%
#915000
b10110 "
b11101 !
14
0A
17
1C
13
1/
1$
1(
#920000
b11111 !
b10111 !
b10110 !
b10010 "
b10010 !
b10011 "
1A
0<
0B
1>
0;
09
1@
1:
10
12
1'
1%
#925000
b10001 "
b10 !
b1010 !
b10101 "
b1110 !
1;
19
04
0?
1<
0:
07
0@
02
0/
00
0%
0$
0'
#930000
b101 "
b1101 "
0#
b1100 !
b1000 !
06
0>
0;
18
05
#935000
b1100 "
b1110 "
b0 !
b10 !
1>
09
0A
1?
1:
0C
03
10
1%
0(
#940000
b1100 "
0?
1@
12
1'
#945000
1#
b1101 "
b1010 !
b1111 "
16
19
1A
1?
0=
17
1C
13
1/
01
0&
1$
1(
#950000
b1011 !
b11111 "
b1001 !
b11110 "
b11100 "
0A
0?
15
1B
0>
07
0/
0$
#955000
b1101 !
b1100 !
b1110 !
b11110 "
1?
0B
1>
1;
0C
1=
11
03
0(
1&
#960000
b11110 !
b11010 "
b10010 "
b10110 !
b10 "
b10010 !
b10000 !
0<
08
05
0>
0;
09
14
0@
02
0'
#965000
0#
b0 !
b1000 !
b10010 "
06
15
19
04
1@
0=
17
1/
01
12
1'
0&
1$
#970000
b10011 "
b10001 "
b11001 "
b1100 !
b1110 !
b110 !
1>
1;
09
1A
0?
18
1=
1C
13
11
1&
1(
#975000
b111 !
b11101 "
b10111 !
b1101 "
1<
05
1B
14
0=
0C
03
01
0&
0(
#980000
1#
b101 "
b10110 !
b1 "
b10001 "
16
0B
0<
08
15
0@
1C
13
02
0'
1(
#985000
b10010 !
0#
b11001 "
b11101 "
06
1<
18
0;
1@
1=
07
0/
11
12
1'
1&
0$
#990000
b11100 "
b1100 "
1#
b100 "
b0 "
0A
0<
08
05
16
0C
0@
02
03
0(
0'
#995000
b10 "
b11010 !
b1010 !
b1011 !
b10010 "
0#
b11010 "
1B
19
04
1?
18
15
06
1C
0:
17
0=
01
1/
00
13
1(
0%
1$
0&
